verilog/tb/dump.vcd
$date
	Tue Jan 17 11:47:19 2023
$end
$version
	Icarus Verilog
$end
$timescale
	1us
$end
$scope module adc_row_col_decoder_tb $end
$var reg 12 ! data [11:0] $end
$upscope $end
$scope module adc_row_col_decoder_tb $end
$var reg 1 " row_mode $end
$upscope $end
$scope module adc_row_col_decoder_tb $end
$var reg 1 # col_mode $end
$upscope $end
$scope module adc_row_col_decoder_tb $end
$var wire 16 $ row_n [15:0] $end
$upscope $end
$scope module adc_row_col_decoder_tb $end
$var wire 16 % rowon_n [15:0] $end
$upscope $end
$scope module adc_row_col_decoder_tb $end
$var wire 16 & rowoff_n [15:0] $end
$upscope $end
$scope module adc_row_col_decoder_tb $end
$var wire 32 ' col_n [31:0] $end
$upscope $end
$scope module adc_row_col_decoder_tb $end
$var wire 32 ( col [31:0] $end
$upscope $end
$scope module adc_row_col_decoder_tb $end
$var wire 3 ) bincap_n [2:0] $end
$upscope $end
$scope module adc_row_col_decoder_tb $end
$var wire 1 * c0p_n $end
$upscope $end
$scope module adc_row_col_decoder_tb $end
$var wire 1 + c0n_n $end
$upscope $end
$scope module adc_row_col_decoder_tb $end
$scope module decoder $end
$var wire 3 , bincap_out_n [2:0] $end
$var wire 1 + c0n_out_n $end
$var wire 1 * c0p_out_n $end
$var wire 1 # col_mode $end
$var wire 32 - col_out [31:0] $end
$var wire 12 . data_in [11:0] $end
$var wire 1 / is_first_row $end
$var wire 16 0 row_bottotop_n [15:0] $end
$var wire 1 " row_mode $end
$var wire 16 1 rowoff_out_n [15:0] $end
$var wire 1 2 zeroes $end
$var wire 16 3 rowon_out_n [15:0] $end
$var wire 16 4 rowon_midtoside_n [15:0] $end
$var wire 16 5 rowon_bottotop_n [15:0] $end
$var wire 16 6 row_out_n [15:0] $end
$var wire 16 7 row_midtoside_n [15:0] $end
$var wire 4 8 row_intermediate_w [3:0] $end
$var wire 1 9 row_direction_RL $end
$var wire 32 : col_sidetoside_n [31:0] $end
$var wire 33 ; col_shift_inv [32:0] $end
$var wire 33 < col_shift [32:0] $end
$var wire 32 = col_out_n [31:0] $end
$var wire 32 > col_odd_n [31:0] $end
$var wire 32 ? col_midtoside_n [31:0] $end
$var wire 5 @ col_intermediate_w [4:0] $end
$var wire 32 A col_even_n [31:0] $end
$var wire 3 B bincap_w [2:0] $end
$scope begin genblk1[0] $end
$var parameter 2 C i $end
$upscope $end
$scope begin genblk1[1] $end
$var parameter 2 D i $end
$upscope $end
$scope begin genblk1[2] $end
$var parameter 3 E i $end
$upscope $end
$scope begin genblk1[3] $end
$var parameter 3 F i $end
$upscope $end
$scope begin genblk1[4] $end
$var parameter 4 G i $end
$upscope $end
$scope begin genblk1[5] $end
$var parameter 4 H i $end
$upscope $end
$scope begin genblk1[6] $end
$var parameter 4 I i $end
$upscope $end
$scope begin genblk1[7] $end
$var parameter 4 J i $end
$upscope $end
$scope begin genblk2[0] $end
$var parameter 2 K i $end
$upscope $end
$scope begin genblk2[1] $end
$var parameter 2 L i $end
$upscope $end
$scope begin genblk2[2] $end
$var parameter 3 M i $end
$upscope $end
$scope begin genblk2[3] $end
$var parameter 3 N i $end
$upscope $end
$scope begin genblk2[4] $end
$var parameter 4 O i $end
$upscope $end
$scope begin genblk2[5] $end
$var parameter 4 P i $end
$upscope $end
$scope begin genblk2[6] $end
$var parameter 4 Q i $end
$upscope $end
$scope begin genblk2[7] $end
$var parameter 4 R i $end
$upscope $end
$scope begin genblk2[8] $end
$var parameter 5 S i $end
$upscope $end
$scope begin genblk2[9] $end
$var parameter 5 T i $end
$upscope $end
$scope begin genblk2[10] $end
$var parameter 5 U i $end
$upscope $end
$scope begin genblk2[11] $end
$var parameter 5 V i $end
$upscope $end
$scope begin genblk2[12] $end
$var parameter 5 W i $end
$upscope $end
$scope begin genblk2[13] $end
$var parameter 5 X i $end
$upscope $end
$scope begin genblk2[14] $end
$var parameter 5 Y i $end
$upscope $end
$scope begin genblk2[15] $end
$var parameter 5 Z i $end
$upscope $end
$scope begin genblk2[16] $end
$var parameter 6 [ i $end
$upscope $end
$scope begin genblk2[17] $end
$var parameter 6 \ i $end
$upscope $end
$scope begin genblk2[18] $end
$var parameter 6 ] i $end
$upscope $end
$scope begin genblk2[19] $end
$var parameter 6 ^ i $end
$upscope $end
$scope begin genblk2[20] $end
$var parameter 6 _ i $end
$upscope $end
$scope begin genblk2[21] $end
$var parameter 6 ` i $end
$upscope $end
$scope begin genblk2[22] $end
$var parameter 6 a i $end
$upscope $end
$scope begin genblk2[23] $end
$var parameter 6 b i $end
$upscope $end
$scope begin genblk2[24] $end
$var parameter 6 c i $end
$upscope $end
$scope begin genblk2[25] $end
$var parameter 6 d i $end
$upscope $end
$scope begin genblk2[26] $end
$var parameter 6 e i $end
$upscope $end
$scope begin genblk2[27] $end
$var parameter 6 f i $end
$upscope $end
$scope begin genblk2[28] $end
$var parameter 6 g i $end
$upscope $end
$scope begin genblk2[29] $end
$var parameter 6 h i $end
$upscope $end
$scope begin genblk2[30] $end
$var parameter 6 i i $end
$upscope $end
$scope begin genblk2[31] $end
$var parameter 6 j i $end
$upscope $end
$scope begin genblk2[32] $end
$var parameter 7 k i $end
$upscope $end
$scope begin genblk3[0] $end
$var parameter 2 l i $end
$upscope $end
$scope begin genblk3[1] $end
$var parameter 2 m i $end
$upscope $end
$scope begin genblk3[2] $end
$var parameter 3 n i $end
$upscope $end
$scope begin genblk3[3] $end
$var parameter 3 o i $end
$upscope $end
$scope begin genblk3[4] $end
$var parameter 4 p i $end
$upscope $end
$scope begin genblk3[5] $end
$var parameter 4 q i $end
$upscope $end
$scope begin genblk3[6] $end
$var parameter 4 r i $end
$upscope $end
$scope begin genblk3[7] $end
$var parameter 4 s i $end
$upscope $end
$scope begin genblk3[8] $end
$var parameter 5 t i $end
$upscope $end
$scope begin genblk3[9] $end
$var parameter 5 u i $end
$upscope $end
$scope begin genblk3[10] $end
$var parameter 5 v i $end
$upscope $end
$scope begin genblk3[11] $end
$var parameter 5 w i $end
$upscope $end
$scope begin genblk3[12] $end
$var parameter 5 x i $end
$upscope $end
$scope begin genblk3[13] $end
$var parameter 5 y i $end
$upscope $end
$scope begin genblk3[14] $end
$var parameter 5 z i $end
$upscope $end
$scope begin genblk3[15] $end
$var parameter 5 { i $end
$upscope $end
$upscope $end
$upscope $end
$enddefinitions $end
$comment Show the parameter values. $end
$dumpall
b1111 {
b1110 z
b1101 y
b1100 x
b1011 w
b1010 v
b1001 u
b1000 t
b111 s
b110 r
b101 q
b100 p
b11 o
b10 n
b1 m
b0 l
b100000 k
b11111 j
b11110 i
b11101 h
b11100 g
b11011 f
b11010 e
b11001 d
b11000 c
b10111 b
b10110 a
b10101 `
b10100 _
b10011 ^
b10010 ]
b10001 \
b10000 [
b1111 Z
b1110 Y
b1101 X
b1100 W
b1011 V
b1010 U
b1001 T
b1000 S
b111 R
b110 Q
b101 P
b100 O
b11 N
b10 M
b1 L
b0 K
b111 J
b110 I
b101 H
b100 G
b11 F
b10 E
b1 D
b0 C
$end
#0
$dumpvars
b0 B
b11111111111111111111111111111110 A
b0 @
b11111111111111101111111111111111 ?
b1111111111111111111111111111111 >
b11111111111111111111111111111110 =
b111111111111111111111111111111110 <
b11111111111111111111111111111111 ;
b11111111111111111111111111111110 :
09
b0 8
b1111111011111111 7
b1111111111111110 6
b1111111111111111 5
b1111111111111111 4
b1111111111111111 3
02
b1 1
b1111111111111110 0
1/
b0 .
b1 -
b111 ,
1+
0*
b111 )
b1 (
b11111111111111111111111111111110 '
b1 &
b1111111111111111 %
b1111111111111110 $
0#
0"
b0 !
$end
#10
b110 )
b110 ,
b1 B
b1 !
b1 .
#20
b101 )
b101 ,
b10 B
b10 !
b10 .
#30
b100 )
b100 ,
b11 B
b11 !
b11 .
#40
b11 )
b11 ,
b100 B
b100 !
b100 .
#50
b10 )
b10 ,
b101 B
b101 !
b101 .
#60
b1 )
b1 ,
b110 B
b110 !
b110 .
#70
b0 )
b0 ,
b111 B
b111 !
b111 .
#80
b11 (
b11 -
b11111111111111111111111111111100 '
b11111111111111111111111111111100 =
b11111111111111111111111111111100 :
b11111111111111100111111111111111 ?
b111111111111111111111111111111 >
b11111111111111111111111111111100 A
b111 )
b111 ,
b1111111111111111111111111111111 ;
b0 B
b111111111111111111111111111111100 <
b1 @
b1000 !
b1000 .
#90
b110 )
b110 ,
b1 B
b1001 !
b1001 .
#100
b101 )
b101 ,
b10 B
b1010 !
b1010 .
#110
b100 )
b100 ,
b11 B
b1011 !
b1011 .
#120
b11 )
b11 ,
b100 B
b1100 !
b1100 .
#130
b10 )
b10 ,
b101 B
b1101 !
b1101 .
#140
b1 )
b1 ,
b110 B
b1110 !
b1110 .
#150
b0 )
b0 ,
b111 B
b1111 !
b1111 .
#160
b111 (
b111 -
b11111111111111111111111111111000 '
b11111111111111111111111111111000 =
b11111111111111111111111111111000 :
b11111111111111000111111111111111 ?
b11111111111111111111111111111 >
b11111111111111111111111111111000 A
b111 )
b111 ,
b111111111111111111111111111111 ;
b0 B
b111111111111111111111111111111000 <
b10 @
b10000 !
b10000 .
#170
b110 )
b110 ,
b1 B
b10001 !
b10001 .
#180
b101 )
b101 ,
b10 B
b10010 !
b10010 .
#190
b100 )
b100 ,
b11 B
b10011 !
b10011 .
#200
b11 )
b11 ,
b100 B
b10100 !
b10100 .
#210
b10 )
b10 ,
b101 B
b10101 !
b10101 .
#220
b1 )
b1 ,
b110 B
b10110 !
b10110 .
#230
b0 )
b0 ,
b111 B
b10111 !
b10111 .
#240
b1111 (
b1111 -
b11111111111111111111111111110000 '
b11111111111111111111111111110000 =
b11111111111111111111111111110000 :
b11111111111111000011111111111111 ?
b1111111111111111111111111111 >
b11111111111111111111111111110000 A
b111 )
b111 ,
b11111111111111111111111111111 ;
b0 B
b111111111111111111111111111110000 <
b11 @
b11000 !
b11000 .
#250
b110 )
b110 ,
b1 B
b11001 !
b11001 .
#260
b101 )
b101 ,
b10 B
b11010 !
b11010 .
#270
b100 )
b100 ,
b11 B
b11011 !
b11011 .
#280
b11 )
b11 ,
b100 B
b11100 !
b11100 .
#290
b10 )
b10 ,
b101 B
b11101 !
b11101 .
#300
b1 )
b1 ,
b110 B
b11110 !
b11110 .
#310
b0 )
b0 ,
b111 B
b11111 !
b11111 .
#320
b11111 (
b11111 -
b11111111111111111111111111100000 '
b11111111111111111111111111100000 =
b11111111111111111111111111100000 :
b11111111111110000011111111111111 ?
b111111111111111111111111111 >
b11111111111111111111111111100000 A
b111 )
b111 ,
b1111111111111111111111111111 ;
b0 B
b111111111111111111111111111100000 <
b100 @
b100000 !
b100000 .
#330
b110 )
b110 ,
b1 B
b100001 !
b100001 .
#340
b101 )
b101 ,
b10 B
b100010 !
b100010 .
#350
b100 )
b100 ,
b11 B
b100011 !
b100011 .
#360
b11 )
b11 ,
b100 B
b100100 !
b100100 .
#370
b10 )
b10 ,
b101 B
b100101 !
b100101 .
#380
b1 )
b1 ,
b110 B
b100110 !
b100110 .
#390
b0 )
b0 ,
b111 B
b100111 !
b100111 .
#400
b111111 (
b111111 -
b11111111111111111111111111000000 '
b11111111111111111111111111000000 =
b11111111111111111111111111000000 :
b11111111111110000001111111111111 ?
b11111111111111111111111111 >
b11111111111111111111111111000000 A
b111 )
b111 ,
b111111111111111111111111111 ;
b0 B
b111111111111111111111111111000000 <
b101 @
b101000 !
b101000 .
#410
b110 )
b110 ,
b1 B
b101001 !
b101001 .
#420
b101 )
b101 ,
b10 B
b101010 !
b101010 .
#430
b100 )
b100 ,
b11 B
b101011 !
b101011 .
#440
b11 )
b11 ,
b100 B
b101100 !
b101100 .
#450
b10 )
b10 ,
b101 B
b101101 !
b101101 .
#460
b1 )
b1 ,
b110 B
b101110 !
b101110 .
#470
b0 )
b0 ,
b111 B
b101111 !
b101111 .
#480
b1111111 (
b1111111 -
b11111111111111111111111110000000 '
b11111111111111111111111110000000 =
b11111111111111111111111110000000 :
b11111111111100000001111111111111 ?
b1111111111111111111111111 >
b11111111111111111111111110000000 A
b111 )
b111 ,
b11111111111111111111111111 ;
b0 B
b111111111111111111111111110000000 <
b110 @
b110000 !
b110000 .
#490
b110 )
b110 ,
b1 B
b110001 !
b110001 .
#500
b101 )
b101 ,
b10 B
b110010 !
b110010 .
#510
b100 )
b100 ,
b11 B
b110011 !
b110011 .
#520
b11 )
b11 ,
b100 B
b110100 !
b110100 .
#530
b10 )
b10 ,
b101 B
b110101 !
b110101 .
#540
b1 )
b1 ,
b110 B
b110110 !
b110110 .
#550
b0 )
b0 ,
b111 B
b110111 !
b110111 .
#560
b11111111 (
b11111111 -
b11111111111111111111111100000000 '
b11111111111111111111111100000000 =
b11111111111111111111111100000000 :
b11111111111100000000111111111111 ?
b111111111111111111111111 >
b11111111111111111111111100000000 A
b111 )
b111 ,
b1111111111111111111111111 ;
b0 B
b111111111111111111111111100000000 <
b111 @
b111000 !
b111000 .
#570
b110 )
b110 ,
b1 B
b111001 !
b111001 .
#580
b101 )
b101 ,
b10 B
b111010 !
b111010 .
#590
b100 )
b100 ,
b11 B
b111011 !
b111011 .
#600
b11 )
b11 ,
b100 B
b111100 !
b111100 .
#610
b10 )
b10 ,
b101 B
b111101 !
b111101 .
#620
b1 )
b1 ,
b110 B
b111110 !
b111110 .
#630
b0 )
b0 ,
b111 B
b111111 !
b111111 .
#640
b111111111 (
b111111111 -
b11111111111111111111111000000000 '
b11111111111111111111111000000000 =
b11111111111111111111111000000000 :
b11111111111000000000111111111111 ?
b11111111111111111111111 >
b11111111111111111111111000000000 A
b111 )
b111 ,
b111111111111111111111111 ;
b0 B
b111111111111111111111111000000000 <
b1000 @
b1000000 !
b1000000 .
#650
b110 )
b110 ,
b1 B
b1000001 !
b1000001 .
#660
b101 )
b101 ,
b10 B
b1000010 !
b1000010 .
#670
b100 )
b100 ,
b11 B
b1000011 !
b1000011 .
#680
b11 )
b11 ,
b100 B
b1000100 !
b1000100 .
#690
b10 )
b10 ,
b101 B
b1000101 !
b1000101 .
#700
b1 )
b1 ,
b110 B
b1000110 !
b1000110 .
#710
b0 )
b0 ,
b111 B
b1000111 !
b1000111 .
#720
b1111111111 (
b1111111111 -
b11111111111111111111110000000000 '
b11111111111111111111110000000000 =
b11111111111111111111110000000000 :
b11111111111000000000011111111111 ?
b1111111111111111111111 >
b11111111111111111111110000000000 A
b111 )
b111 ,
b11111111111111111111111 ;
b0 B
b111111111111111111111110000000000 <
b1001 @
b1001000 !
b1001000 .
#730
b110 )
b110 ,
b1 B
b1001001 !
b1001001 .
#740
b101 )
b101 ,
b10 B
b1001010 !
b1001010 .
#750
b100 )
b100 ,
b11 B
b1001011 !
b1001011 .
#760
b11 )
b11 ,
b100 B
b1001100 !
b1001100 .
#770
b10 )
b10 ,
b101 B
b1001101 !
b1001101 .
#780
b1 )
b1 ,
b110 B
b1001110 !
b1001110 .
#790
b0 )
b0 ,
b111 B
b1001111 !
b1001111 .
#800
b11111111111 (
b11111111111 -
b11111111111111111111100000000000 '
b11111111111111111111100000000000 =
b11111111111111111111100000000000 :
b11111111110000000000011111111111 ?
b111111111111111111111 >
b11111111111111111111100000000000 A
b111 )
b111 ,
b1111111111111111111111 ;
b0 B
b111111111111111111111100000000000 <
b1010 @
b1010000 !
b1010000 .
#810
b110 )
b110 ,
b1 B
b1010001 !
b1010001 .
#820
b101 )
b101 ,
b10 B
b1010010 !
b1010010 .
#830
b100 )
b100 ,
b11 B
b1010011 !
b1010011 .
#840
b11 )
b11 ,
b100 B
b1010100 !
b1010100 .
#850
b10 )
b10 ,
b101 B
b1010101 !
b1010101 .
#860
b1 )
b1 ,
b110 B
b1010110 !
b1010110 .
#870
b0 )
b0 ,
b111 B
b1010111 !
b1010111 .
#880
b111111111111 (
b111111111111 -
b11111111111111111111000000000000 '
b11111111111111111111000000000000 =
b11111111111111111111000000000000 :
b11111111110000000000001111111111 ?
b11111111111111111111 >
b11111111111111111111000000000000 A
b111 )
b111 ,
b111111111111111111111 ;
b0 B
b111111111111111111111000000000000 <
b1011 @
b1011000 !
b1011000 .
#890
b110 )
b110 ,
b1 B
b1011001 !
b1011001 .
#900
b101 )
b101 ,
b10 B
b1011010 !
b1011010 .
#910
b100 )
b100 ,
b11 B
b1011011 !
b1011011 .
#920
b11 )
b11 ,
b100 B
b1011100 !
b1011100 .
#930
b10 )
b10 ,
b101 B
b1011101 !
b1011101 .
#940
b1 )
b1 ,
b110 B
b1011110 !
b1011110 .
#950
b0 )
b0 ,
b111 B
b1011111 !
b1011111 .
#960
b1111111111111 (
b1111111111111 -
b11111111111111111110000000000000 '
b11111111111111111110000000000000 =
b11111111111111111110000000000000 :
b11111111100000000000001111111111 ?
b1111111111111111111 >
b11111111111111111110000000000000 A
b111 )
b111 ,
b11111111111111111111 ;
b0 B
b111111111111111111110000000000000 <
b1100 @
b1100000 !
b1100000 .
#970
b110 )
b110 ,
b1 B
b1100001 !
b1100001 .
#980
b101 )
b101 ,
b10 B
b1100010 !
b1100010 .
#990
b100 )
b100 ,
b11 B
b1100011 !
b1100011 .
#1000
b11 )
b11 ,
b100 B
b1100100 !
b1100100 .
#1010
b10 )
b10 ,
b101 B
b1100101 !
b1100101 .
#1020
b1 )
b1 ,
b110 B
b1100110 !
b1100110 .
#1030
b0 )
b0 ,
b111 B
b1100111 !
b1100111 .
#1040
b11111111111111 (
b11111111111111 -
b11111111111111111100000000000000 '
b11111111111111111100000000000000 =
b11111111111111111100000000000000 :
b11111111100000000000000111111111 ?
b111111111111111111 >
b11111111111111111100000000000000 A
b111 )
b111 ,
b1111111111111111111 ;
b0 B
b111111111111111111100000000000000 <
b1101 @
b1101000 !
b1101000 .
#1050
b110 )
b110 ,
b1 B
b1101001 !
b1101001 .
#1060
b101 )
b101 ,
b10 B
b1101010 !
b1101010 .
#1070
b100 )
b100 ,
b11 B
b1101011 !
b1101011 .
#1080
b11 )
b11 ,
b100 B
b1101100 !
b1101100 .
#1090
b10 )
b10 ,
b101 B
b1101101 !
b1101101 .
#1100
b1 )
b1 ,
b110 B
b1101110 !
b1101110 .
#1110
b0 )
b0 ,
b111 B
b1101111 !
b1101111 .
#1120
b111111111111111 (
b111111111111111 -
b11111111111111111000000000000000 '
b11111111111111111000000000000000 =
b11111111111111111000000000000000 :
b11111111000000000000000111111111 ?
b11111111111111111 >
b11111111111111111000000000000000 A
b111 )
b111 ,
b111111111111111111 ;
b0 B
b111111111111111111000000000000000 <
b1110 @
b1110000 !
b1110000 .
#1130
b110 )
b110 ,
b1 B
b1110001 !
b1110001 .
#1140
b101 )
b101 ,
b10 B
b1110010 !
b1110010 .
#1150
b100 )
b100 ,
b11 B
b1110011 !
b1110011 .
#1160
b11 )
b11 ,
b100 B
b1110100 !
b1110100 .
#1170
b10 )
b10 ,
b101 B
b1110101 !
b1110101 .
#1180
b1 )
b1 ,
b110 B
b1110110 !
b1110110 .
#1190
b0 )
b0 ,
b111 B
b1110111 !
b1110111 .
#1200
b1111111111111111 (
b1111111111111111 -
b11111111111111110000000000000000 '
b11111111111111110000000000000000 =
b11111111111111110000000000000000 :
b11111111000000000000000011111111 ?
b1111111111111111 >
b11111111111111110000000000000000 A
b111 )
b111 ,
b11111111111111111 ;
b0 B
b111111111111111110000000000000000 <
b1111 @
b1111000 !
b1111000 .
#1210
b110 )
b110 ,
b1 B
b1111001 !
b1111001 .
#1220
b101 )
b101 ,
b10 B
b1111010 !
b1111010 .
#1230
b100 )
b100 ,
b11 B
b1111011 !
b1111011 .
#1240
b11 )
b11 ,
b100 B
b1111100 !
b1111100 .
#1250
b10 )
b10 ,
b101 B
b1111101 !
b1111101 .
#1260
b1 )
b1 ,
b110 B
b1111110 !
b1111110 .
#1270
b0 )
b0 ,
b111 B
b1111111 !
b1111111 .
#1280
b11111111111111111 (
b11111111111111111 -
b11111111111111100000000000000000 '
b11111111111111100000000000000000 =
b11111111111111100000000000000000 :
b11111110000000000000000011111111 ?
b111111111111111 >
b11111111111111100000000000000000 A
b111 )
b111 ,
b1111111111111111 ;
b0 B
b111111111111111100000000000000000 <
b10000 @
b10000000 !
b10000000 .
#1290
b110 )
b110 ,
b1 B
b10000001 !
b10000001 .
#1300
b101 )
b101 ,
b10 B
b10000010 !
b10000010 .
#1310
b100 )
b100 ,
b11 B
b10000011 !
b10000011 .
#1320
b11 )
b11 ,
b100 B
b10000100 !
b10000100 .
#1330
b10 )
b10 ,
b101 B
b10000101 !
b10000101 .
#1340
b1 )
b1 ,
b110 B
b10000110 !
b10000110 .
#1350
b0 )
b0 ,
b111 B
b10000111 !
b10000111 .
#1360
b111111111111111111 (
b111111111111111111 -
b11111111111111000000000000000000 '
b11111111111111000000000000000000 =
b11111111111111000000000000000000 :
b11111110000000000000000001111111 ?
b11111111111111 >
b11111111111111000000000000000000 A
b111 )
b111 ,
b111111111111111 ;
b0 B
b111111111111111000000000000000000 <
b10001 @
b10001000 !
b10001000 .
#1370
b110 )
b110 ,
b1 B
b10001001 !
b10001001 .
#1380
b101 )
b101 ,
b10 B
b10001010 !
b10001010 .
#1390
b100 )
b100 ,
b11 B
b10001011 !
b10001011 .
#1400
b11 )
b11 ,
b100 B
b10001100 !
b10001100 .
#1410
b10 )
b10 ,
b101 B
b10001101 !
b10001101 .
#1420
b1 )
b1 ,
b110 B
b10001110 !
b10001110 .
#1430
b0 )
b0 ,
b111 B
b10001111 !
b10001111 .
#1440
b1111111111111111111 (
b1111111111111111111 -
b11111111111110000000000000000000 '
b11111111111110000000000000000000 =
b11111111111110000000000000000000 :
b11111100000000000000000001111111 ?
b1111111111111 >
b11111111111110000000000000000000 A
b111 )
b111 ,
b11111111111111 ;
b0 B
b111111111111110000000000000000000 <
b10010 @
b10010000 !
b10010000 .
#1450
b110 )
b110 ,
b1 B
b10010001 !
b10010001 .
#1460
b101 )
b101 ,
b10 B
b10010010 !
b10010010 .
#1470
b100 )
b100 ,
b11 B
b10010011 !
b10010011 .
#1480
b11 )
b11 ,
b100 B
b10010100 !
b10010100 .
#1490
b10 )
b10 ,
b101 B
b10010101 !
b10010101 .
#1500
b1 )
b1 ,
b110 B
b10010110 !
b10010110 .
#1510
b0 )
b0 ,
b111 B
b10010111 !
b10010111 .
#1520
b11111111111111111111 (
b11111111111111111111 -
b11111111111100000000000000000000 '
b11111111111100000000000000000000 =
b11111111111100000000000000000000 :
b11111100000000000000000000111111 ?
b111111111111 >
b11111111111100000000000000000000 A
b111 )
b111 ,
b1111111111111 ;
b0 B
b111111111111100000000000000000000 <
b10011 @
b10011000 !
b10011000 .
#1530
b110 )
b110 ,
b1 B
b10011001 !
b10011001 .
#1540
b101 )
b101 ,
b10 B
b10011010 !
b10011010 .
#1550
b100 )
b100 ,
b11 B
b10011011 !
b10011011 .
#1560
b11 )
b11 ,
b100 B
b10011100 !
b10011100 .
#1570
b10 )
b10 ,
b101 B
b10011101 !
b10011101 .
#1580
b1 )
b1 ,
b110 B
b10011110 !
b10011110 .
#1590
b0 )
b0 ,
b111 B
b10011111 !
b10011111 .
#1600
b111111111111111111111 (
b111111111111111111111 -
b11111111111000000000000000000000 '
b11111111111000000000000000000000 =
b11111111111000000000000000000000 :
b11111000000000000000000000111111 ?
b11111111111 >
b11111111111000000000000000000000 A
b111 )
b111 ,
b111111111111 ;
b0 B
b111111111111000000000000000000000 <
b10100 @
b10100000 !
b10100000 .
#1610
b110 )
b110 ,
b1 B
b10100001 !
b10100001 .
#1620
b101 )
b101 ,
b10 B
b10100010 !
b10100010 .
#1630
b100 )
b100 ,
b11 B
b10100011 !
b10100011 .
#1640
b11 )
b11 ,
b100 B
b10100100 !
b10100100 .
#1650
b10 )
b10 ,
b101 B
b10100101 !
b10100101 .
#1660
b1 )
b1 ,
b110 B
b10100110 !
b10100110 .
#1670
b0 )
b0 ,
b111 B
b10100111 !
b10100111 .
#1680
b1111111111111111111111 (
b1111111111111111111111 -
b11111111110000000000000000000000 '
b11111111110000000000000000000000 =
b11111111110000000000000000000000 :
b11111000000000000000000000011111 ?
b1111111111 >
b11111111110000000000000000000000 A
b111 )
b111 ,
b11111111111 ;
b0 B
b111111111110000000000000000000000 <
b10101 @
b10101000 !
b10101000 .
#1690
b110 )
b110 ,
b1 B
b10101001 !
b10101001 .
#1700
b101 )
b101 ,
b10 B
b10101010 !
b10101010 .
#1710
b100 )
b100 ,
b11 B
b10101011 !
b10101011 .
#1720
b11 )
b11 ,
b100 B
b10101100 !
b10101100 .
#1730
b10 )
b10 ,
b101 B
b10101101 !
b10101101 .
#1740
b1 )
b1 ,
b110 B
b10101110 !
b10101110 .
#1750
b0 )
b0 ,
b111 B
b10101111 !
b10101111 .
#1760
b11111111111111111111111 (
b11111111111111111111111 -
b11111111100000000000000000000000 '
b11111111100000000000000000000000 =
b11111111100000000000000000000000 :
b11110000000000000000000000011111 ?
b111111111 >
b11111111100000000000000000000000 A
b111 )
b111 ,
b1111111111 ;
b0 B
b111111111100000000000000000000000 <
b10110 @
b10110000 !
b10110000 .
#1770
b110 )
b110 ,
b1 B
b10110001 !
b10110001 .
#1780
b101 )
b101 ,
b10 B
b10110010 !
b10110010 .
#1790
b100 )
b100 ,
b11 B
b10110011 !
b10110011 .
#1800
b11 )
b11 ,
b100 B
b10110100 !
b10110100 .
#1810
b10 )
b10 ,
b101 B
b10110101 !
b10110101 .
#1820
b1 )
b1 ,
b110 B
b10110110 !
b10110110 .
#1830
b0 )
b0 ,
b111 B
b10110111 !
b10110111 .
#1840
b111111111111111111111111 (
b111111111111111111111111 -
b11111111000000000000000000000000 '
b11111111000000000000000000000000 =
b11111111000000000000000000000000 :
b11110000000000000000000000001111 ?
b11111111 >
b11111111000000000000000000000000 A
b111 )
b111 ,
b111111111 ;
b0 B
b111111111000000000000000000000000 <
b10111 @
b10111000 !
b10111000 .
#1850
b110 )
b110 ,
b1 B
b10111001 !
b10111001 .
#1860
b101 )
b101 ,
b10 B
b10111010 !
b10111010 .
#1870
b100 )
b100 ,
b11 B
b10111011 !
b10111011 .
#1880
b11 )
b11 ,
b100 B
b10111100 !
b10111100 .
#1890
b10 )
b10 ,
b101 B
b10111101 !
b10111101 .
#1900
b1 )
b1 ,
b110 B
b10111110 !
b10111110 .
#1910
b0 )
b0 ,
b111 B
b10111111 !
b10111111 .
#1920
b1111111111111111111111111 (
b1111111111111111111111111 -
b11111110000000000000000000000000 '
b11111110000000000000000000000000 =
b11111110000000000000000000000000 :
b11100000000000000000000000001111 ?
b1111111 >
b11111110000000000000000000000000 A
b111 )
b111 ,
b11111111 ;
b0 B
b111111110000000000000000000000000 <
b11000 @
b11000000 !
b11000000 .
#1930
b110 )
b110 ,
b1 B
b11000001 !
b11000001 .
#1940
b101 )
b101 ,
b10 B
b11000010 !
b11000010 .
#1950
b100 )
b100 ,
b11 B
b11000011 !
b11000011 .
#1960
b11 )
b11 ,
b100 B
b11000100 !
b11000100 .
#1970
b10 )
b10 ,
b101 B
b11000101 !
b11000101 .
#1980
b1 )
b1 ,
b110 B
b11000110 !
b11000110 .
#1990
b0 )
b0 ,
b111 B
b11000111 !
b11000111 .
#2000
b11111111111111111111111111 (
b11111111111111111111111111 -
b11111100000000000000000000000000 '
b11111100000000000000000000000000 =
b11111100000000000000000000000000 :
b11100000000000000000000000000111 ?
b111111 >
b11111100000000000000000000000000 A
b111 )
b111 ,
b1111111 ;
b0 B
b111111100000000000000000000000000 <
b11001 @
b11001000 !
b11001000 .
#2010
b110 )
b110 ,
b1 B
b11001001 !
b11001001 .
#2020
b101 )
b101 ,
b10 B
b11001010 !
b11001010 .
#2030
b100 )
b100 ,
b11 B
b11001011 !
b11001011 .
#2040
b11 )
b11 ,
b100 B
b11001100 !
b11001100 .
#2050
b10 )
b10 ,
b101 B
b11001101 !
b11001101 .
#2060
b1 )
b1 ,
b110 B
b11001110 !
b11001110 .
#2070
b0 )
b0 ,
b111 B
b11001111 !
b11001111 .
#2080
b111111111111111111111111111 (
b111111111111111111111111111 -
b11111000000000000000000000000000 '
b11111000000000000000000000000000 =
b11111000000000000000000000000000 :
b11000000000000000000000000000111 ?
b11111 >
b11111000000000000000000000000000 A
b111 )
b111 ,
b111111 ;
b0 B
b111111000000000000000000000000000 <
b11010 @
b11010000 !
b11010000 .
#2090
b110 )
b110 ,
b1 B
b11010001 !
b11010001 .
#2100
b101 )
b101 ,
b10 B
b11010010 !
b11010010 .
#2110
b100 )
b100 ,
b11 B
b11010011 !
b11010011 .
#2120
b11 )
b11 ,
b100 B
b11010100 !
b11010100 .
#2130
b10 )
b10 ,
b101 B
b11010101 !
b11010101 .
#2140
b1 )
b1 ,
b110 B
b11010110 !
b11010110 .
#2150
b0 )
b0 ,
b111 B
b11010111 !
b11010111 .
#2160
b1111111111111111111111111111 (
b1111111111111111111111111111 -
b11110000000000000000000000000000 '
b11110000000000000000000000000000 =
b11110000000000000000000000000000 :
b11000000000000000000000000000011 ?
b1111 >
b11110000000000000000000000000000 A
b111 )
b111 ,
b11111 ;
b0 B
b111110000000000000000000000000000 <
b11011 @
b11011000 !
b11011000 .
#2170
b110 )
b110 ,
b1 B
b11011001 !
b11011001 .
#2180
b101 )
b101 ,
b10 B
b11011010 !
b11011010 .
#2190
b100 )
b100 ,
b11 B
b11011011 !
b11011011 .
#2200
b11 )
b11 ,
b100 B
b11011100 !
b11011100 .
#2210
b10 )
b10 ,
b101 B
b11011101 !
b11011101 .
#2220
b1 )
b1 ,
b110 B
b11011110 !
b11011110 .
#2230
b0 )
b0 ,
b111 B
b11011111 !
b11011111 .
