verilog/tb/dump.vcd
$date
	Sun Oct 30 10:31:01 2022
$end
$version
	Icarus Verilog
$end
$timescale
	1us
$end
$scope module adc_core_digital_tb $end
$var reg 1 ! rst_n $end
$upscope $end
$scope module adc_core_digital_tb $end
$var reg 16 " config_1_in [15:0] $end
$upscope $end
$scope module adc_core_digital_tb $end
$var reg 16 # config_2_in [15:0] $end
$upscope $end
$scope module adc_core_digital_tb $end
$var wire 16 $ result_out [15:0] $end
$upscope $end
$scope module adc_core_digital_tb $end
$var wire 1 % conv_finished_out $end
$upscope $end
$scope module adc_core_digital_tb $end
$var reg 1 & comparator_in $end
$upscope $end
$scope module adc_core_digital_tb $end
$var reg 1 ' clk_dig_in $end
$upscope $end
$scope module adc_core_digital_tb $end
$var wire 1 ( enable_loop_out $end
$upscope $end
$scope module adc_core_digital_tb $end
$var wire 1 ) sample_matrix_out $end
$upscope $end
$scope module adc_core_digital_tb $end
$var wire 1 * sample_matrix_out_n $end
$upscope $end
$scope module adc_core_digital_tb $end
$var wire 1 + sample_switch_out $end
$upscope $end
$scope module adc_core_digital_tb $end
$var wire 1 , sample_switch_out_n $end
$upscope $end
$scope module adc_core_digital_tb $end
$var wire 32 - pmatrix_col_out_n [31:0] $end
$upscope $end
$scope module adc_core_digital_tb $end
$var wire 16 . pmatrix_row_out_n [15:0] $end
$upscope $end
$scope module adc_core_digital_tb $end
$var wire 16 / pmatrix_rowon_out_n [15:0] $end
$upscope $end
$scope module adc_core_digital_tb $end
$var wire 3 0 pmatrix_bincap_out_n [2:0] $end
$upscope $end
$scope module adc_core_digital_tb $end
$var wire 1 1 pmatrix_c0_out_n $end
$upscope $end
$scope module adc_core_digital_tb $end
$var wire 32 2 nmatrix_col_out_n [31:0] $end
$upscope $end
$scope module adc_core_digital_tb $end
$var wire 16 3 nmatrix_row_out_n [15:0] $end
$upscope $end
$scope module adc_core_digital_tb $end
$var wire 16 4 nmatrix_rowon_out_n [15:0] $end
$upscope $end
$scope module adc_core_digital_tb $end
$var wire 3 5 nmatrix_bincap_out_n [2:0] $end
$upscope $end
$scope module adc_core_digital_tb $end
$var wire 1 6 nmatrix_c0_out_n $end
$upscope $end
$scope module adc_core_digital_tb $end
$scope module core_dut $end
$var wire 16 7 _unused_ok_2 [15:0] $end
$var wire 1 8 _unused_ok_pin1 $end
$var wire 1 9 _unused_ok_pin2 $end
$var wire 1 ' clk_dig_in $end
$var wire 1 & comparator_in $end
$var wire 16 : config_1_in [15:0] $end
$var wire 16 ; config_2_in [15:0] $end
$var wire 1 6 nmatrix_c0_out_n $end
$var wire 1 1 pmatrix_c0_out_n $end
$var wire 1 ! rst_n $end
$var wire 1 ) sample_matrix_out $end
$var wire 1 * sample_matrix_out_n $end
$var wire 1 + sample_switch_out $end
$var wire 1 , sample_switch_out_n $end
$var wire 1 < sample_cnb_n $end
$var wire 1 = sample_cnb $end
$var wire 16 > result_out [15:0] $end
$var wire 12 ? result_cnb [11:0] $end
$var wire 12 @ pswitch_cnb [11:0] $end
$var wire 16 A pmatrix_rowon_out_n [15:0] $end
$var wire 16 B pmatrix_row_out_n [15:0] $end
$var wire 32 C pmatrix_col_out_n [31:0] $end
$var wire 3 D pmatrix_bincap_out_n [2:0] $end
$var wire 3 E osr_mode_w [2:0] $end
$var wire 12 F nswitch_cnb [11:0] $end
$var wire 16 G nmatrix_rowon_out_n [15:0] $end
$var wire 16 H nmatrix_row_out_n [15:0] $end
$var wire 32 I nmatrix_col_out_n [31:0] $end
$var wire 3 J nmatrix_bincap_out_n [2:0] $end
$var wire 1 ( enable_loop_out $end
$var wire 1 % conv_finished_out $end
$var wire 1 K conv_finished_cnb_n $end
$var wire 3 L avg_control_w [2:0] $end
$var wire 10 M _unused_ok_1 [9:0] $end
$scope module cnb $end
$var wire 3 N avg_control_in [2:0] $end
$var wire 1 ' clk $end
$var wire 1 & comparator_in $end
$var wire 1 K conv_finished_strobe_out $end
$var wire 1 ( enable_loop_out $end
$var wire 1 O is_averaging_w $end
$var wire 1 P lsb_region_w $end
$var wire 1 Q next_conv_finished_w $end
$var wire 12 R pswitch_out [11:0] $end
$var wire 1 S result_ready_w $end
$var wire 1 T result_strobe_w $end
$var wire 1 ! rst_n $end
$var wire 1 = sample_out $end
$var wire 1 < sample_out_n $end
$var wire 12 U nswitch_out [11:0] $end
$var wire 12 V nonbinary_value_w [11:0] $end
$var wire 17 W next_shift_register_w [16:0] $end
$var wire 3 X next_sampled_avg_control_w [2:0] $end
$var wire 12 Y next_result_w [11:0] $end
$var wire 12 Z next_data_register_w [11:0] $end
$var wire 5 [ next_average_sum_w [4:0] $end
$var wire 5 \ next_average_counter_w [4:0] $end
$var wire 1 ] is_sampling_w $end
$var wire 1 ^ averaged_comparator_in_w $end
$var wire 5 _ average_count_limit_w [4:0] $end
$var parameter 32 ` MATRIX_BITS $end
$var parameter 32 a NONBINARY_REDUNDANCY $end
$var reg 5 b average_counter_r [4:0] $end
$var reg 5 c average_sum_r [4:0] $end
$var reg 1 K conv_finished_r $end
$var reg 12 d data_register_r [11:0] $end
$var reg 12 e result_out [11:0] $end
$var reg 3 f sampled_avg_control_r [2:0] $end
$var reg 17 g shift_register_r [16:0] $end
$upscope $end
$scope module ndc $end
$var wire 3 h bincap_out_n [2:0] $end
$var wire 1 6 c0n_out_n $end
$var wire 1 9 c0p_out_n $end
$var wire 12 i data_in [11:0] $end
$var wire 16 j rowon_out_n [15:0] $end
$var wire 16 k row_out_n [15:0] $end
$var wire 1 l row_is_odd $end
$var wire 4 m row_intermediate_w [3:0] $end
$var wire 32 n col_out_n [31:0] $end
$var wire 5 o col_intermediate_w [4:0] $end
$var wire 3 p bincap_w [2:0] $end
$upscope $end
$scope module osr $end
$var wire 1 q bypass_oversampling $end
$var wire 1 % conversion_finished_strobe_out $end
$var wire 12 r data_in [11:0] $end
$var wire 16 s data_out [15:0] $end
$var wire 1 K data_valid_strobe $end
$var wire 1 t is_first_sample $end
$var wire 1 u is_last_sample $end
$var wire 1 v next_data_valid_w $end
$var wire 3 w osr_mode_in [2:0] $end
$var wire 1 ! rst_n $end
$var wire 9 x osr_count_limit_w [8:0] $end
$var wire 9 y next_sample_count_w [8:0] $end
$var wire 20 z next_result_w [19:0] $end
$var wire 16 { next_output_w [15:0] $end
$var wire 3 | next_osr_mode_w [2:0] $end
$var reg 1 } data_valid_r $end
$var reg 3 ~ osr_mode_r [2:0] $end
$var reg 16 !" output_r [15:0] $end
$var reg 20 "" result_r [19:0] $end
$var reg 9 #" sample_count_r [8:0] $end
$upscope $end
$scope module pdc $end
$var wire 3 $" bincap_out_n [2:0] $end
$var wire 1 8 c0n_out_n $end
$var wire 1 1 c0p_out_n $end
$var wire 12 %" data_in [11:0] $end
$var wire 16 &" rowon_out_n [15:0] $end
$var wire 16 '" row_out_n [15:0] $end
$var wire 1 (" row_is_odd $end
$var wire 4 )" row_intermediate_w [3:0] $end
$var wire 32 *" col_out_n [31:0] $end
$var wire 5 +" col_intermediate_w [4:0] $end
$var wire 3 ," bincap_w [2:0] $end
$upscope $end
$upscope $end
$upscope $end
$enddefinitions $end
$comment Show the parameter values. $end
$dumpall
b11 a
b1100 `
$end
#0
$dumpvars
bx ,"
bx +"
bx *"
bx )"
x("
bx '"
b1xxxxxxxxxxxxxxx &"
bx %"
bx $"
bx #"
bx ""
bx !"
bx ~
x}
bx |
bx {
bx z
bx y
bx0x0x0x0x x
bx w
xv
xu
xt
bx s
bx r
xq
bx p
bx o
bx n
bx m
xl
bx k
b1xxxxxxxxxxxxxxx j
bx i
bx h
bx g
bx f
bx e
bx d
bx c
bx b
bx1 _
x^
x]
bx \
bx [
bx Z
bx Y
bx X
bx W
bx V
bx U
xT
xS
bx R
xQ
xP
xO
bx N
bx M
bx L
xK
bx J
bx I
bx H
b1xxxxxxxxxxxxxxx G
bx F
bx E
bx D
bx C
bx B
b1xxxxxxxxxxxxxxx A
bx @
bx ?
bx >
x=
x<
bx ;
bx :
19
08
bx 7
06
bx 5
b1xxxxxxxxxxxxxxx 4
bx 3
bx 2
11
bx 0
b1xxxxxxxxxxxxxxx /
bx .
bx -
x,
x+
x*
x)
x(
x'
x&
x%
bx $
bx #
bx "
x!
$end
#10
0q
b1 L
b1 N
b1 E
b1 w
b0 M
b0 7
b0 #
b0 ;
b1001 "
b1001 :
0'
#20
1'
#30
0'
1!
0&
#40
1'
#50
b0 {
0^
0P
b0 0
b0 D
b0 $"
b0 -
b0 C
b0 *"
b1000000000000000 /
b1000000000000000 A
b1000000000000000 &"
0v
0u
b0 Y
0S
0Q
0T
b111 ,"
b11111 +"
1("
b0 .
b0 B
b0 '"
b1111 )"
b111 5
b111 J
b111 h
b11111111111111111111111111111110 2
b11111111111111111111111111111110 I
b11111111111111111111111111111110 n
b1111111111111111 4
b1111111111111111 G
b1111111111111111 j
0O
b0 Z
0(
0*
0,
0<
b10000000000000000 W
b111111111111 @
b111111111111 R
b111111111111 %"
b0 p
b0 o
0l
b1111111111111110 3
b1111111111111110 H
b1111111111111110 k
b0 m
b0 [
b1 \
b1 X
b1 _
1)
1+
1=
1]
b0 F
b0 U
b0 i
b0 V
b0 z
0%
1t
b10 y
b1 |
b1 x
0K
b0 d
b0 c
b1 b
b0 f
b1 g
b0 ?
b0 e
b0 r
0}
b0 $
b0 >
b0 s
b0 !"
b1 #"
b0 ~
b0 ""
0'
0!
#60
1'
#70
0'
1!
#80
b1111111110000000 /
b1111111110000000 A
b1111111110000000 &"
b1111111100000000 .
b1111111100000000 B
b1111111100000000 '"
b111 )"
b1111111100000000 4
b1111111100000000 G
b1111111100000000 j
1(
1*
1,
1<
b1000000000000000 W
b11111111111 @
b11111111111 R
b11111111111 %"
b1111111000000000 3
b1111111000000000 H
b1111111000000000 k
b1000 m
b11 _
0)
0+
0=
0]
b100000000000 F
b100000000000 U
b100000000000 i
b100000000000 V
b1 f
b10000000000000000 g
1'
#90
0'
#100
b110 0
b110 D
b110 $"
b11110000000000000000000000000000 -
b11110000000000000000000000000000 C
b11110000000000000000000000000000 *"
b1111000000000000 /
b1111000000000000 A
b1111000000000000 &"
b1 ,"
b11011 +"
0("
b1110000000000000 .
b1110000000000000 B
b1110000000000000 '"
b1100 )"
b1 5
b1 J
b1 h
b111111111111111111111111111 2
b111111111111111111111111111 I
b111111111111111111111111111 n
b1111111111111000 4
b1111111111111000 G
b1111111111111000 j
b100000000000000 W
b110011011001 @
b110011011001 R
b110011011001 %"
b110 p
b100 o
1l
b1111111111110000 3
b1111111111110000 H
b1111111111110000 k
b11 m
b1100100110 F
b1100100110 U
b1100100110 i
b1100100110 V
b1000000000000000 g
1'
#110
b1100100110 Z
b1 [
1^
0'
1&
#120
b100 0
b100 D
b100 $"
b10000000000000000000000000000000 -
b10000000000000000000000000000000 C
b10000000000000000000000000000000 *"
b1111110000000000 /
b1111110000000000 A
b1111110000000000 &"
b11 5
b11 J
b11 h
b111111111111111111111111111111 2
b111111111111111111111111111111 I
b111111111111111111111111111111 n
b1111111111100000 4
b1111111111100000 G
b1111111111100000 j
b11 ,"
b11110 +"
0("
b1111100000000000 .
b1111100000000000 B
b1111100000000000 '"
b1010 )"
b10100001100 Z
b10000000000000 W
b111100110 V
b100 p
b1 o
1l
b1111111111000000 3
b1111111111000000 H
b1111111111000000 k
b101 m
b101011110011 @
b101011110011 R
b101011110011 %"
b10100001100 F
b10100001100 U
b10100001100 i
b1100100110 d
b1 c
b100000000000000 g
1'
#130
b1100100110 Z
b0 [
0^
0'
0&
#140
b101 0
b101 D
b101 $"
b111111111 -
b111111111 C
b111111111 *"
b1111100000000000 /
b1111100000000000 A
b1111100000000000 &"
b10 ,"
b10110 +"
1("
b1111000000000000 .
b1111000000000000 B
b1111000000000000 '"
b1011 )"
b10 5
b10 J
b10 h
b11111111111111111111110000000000 2
b11111111111111111111110000000000 I
b11111111111111111111110000000000 n
b1111111111110000 4
b1111111111110000 G
b1111111111110000 j
b101110110010 @
b101110110010 R
b101110110010 %"
b101 p
b1001 o
0l
b1111111111100000 3
b1111111111100000 H
b1111111111100000 k
b100 m
b10001001101 F
b10001001101 U
b10001001101 i
b100100111 V
b1000000000000 W
b0 c
b10000000000000 g
1'
#150
0'
#160
b10 0
b10 D
b10 $"
b11111111111111111111111111100000 -
b11111111111111111111111111100000 C
b11111111111111111111111111100000 *"
b1111000000000000 /
b1111000000000000 A
b1111000000000000 &"
b101 ,"
b100 +"
0("
b1110000000000000 .
b1110000000000000 B
b1110000000000000 '"
b1100 )"
b101 5
b101 J
b101 h
b1111 2
b1111 I
b1111 n
b1111111111111000 4
b1111111111111000 G
b1111111111111000 j
b110000100101 @
b110000100101 R
b110000100101 %"
b10 p
b11011 o
1l
b1111111111110000 3
b1111111111110000 H
b1111111111110000 k
b11 m
b1111011010 F
b1111011010 U
b1111011010 i
b10110100 V
b100000000000 W
b1000000000000 g
1'
#170
0'
#180
b100 0
b100 D
b100 $"
b11111111111111111100000000000000 -
b11111111111111111100000000000000 C
b11111111111111111100000000000000 *"
b11 ,"
b1101 +"
b11 5
b11 J
b11 h
b1111111111111 2
b1111111111111 I
b1111111111111 n
b110001101011 @
b110001101011 R
b110001101011 %"
b100 p
b10010 o
b1110010100 F
b1110010100 U
b1110010100 i
b1101110 V
b10000000000 W
b100000000000 g
1'
#190
0'
#200
b1 0
b1 D
b1 $"
b11111111111110000000000000000000 -
b11111111111110000000000000000000 C
b11111111111110000000000000000000 *"
b110 ,"
b10010 +"
b110 5
b110 J
b110 h
b111111111111111111 2
b111111111111111111 I
b111111111111111111 n
b110010010110 @
b110010010110 R
b110010010110 %"
b1 p
b1101 o
b1101101001 F
b1101101001 U
b1101101001 i
b1000011 V
b1000000000 W
b10000000000 g
1'
#210
0'
#220
b111 0
b111 D
b111 $"
b11111111100000000000000000000000 -
b11111111100000000000000000000000 C
b11111111100000000000000000000000 *"
b0 ,"
b10110 +"
b0 5
b0 J
b0 h
b1111111111111111111111 2
b1111111111111111111111 I
b1111111111111111111111 n
b110010110000 @
b110010110000 R
b110010110000 %"
b111 p
b1001 o
b1101001111 F
b1101001111 U
b1101001111 i
b101001 V
b100000000 W
b1000000000 g
1'
#230
0'
#240
b11111110000000000000000000000000 -
b11111110000000000000000000000000 C
b11111110000000000000000000000000 *"
b11000 +"
b111111111111111111111111 2
b111111111111111111111111 I
b111111111111111111111111 n
b110011000000 @
b110011000000 R
b110011000000 %"
b111 o
b1100111111 F
b1100111111 U
b1100111111 i
b11001 V
b10000000 W
b100000000 g
1'
#250
0'
#260
b101 0
b101 D
b101 $"
b11111100000000000000000000000000 -
b11111100000000000000000000000000 C
b11111100000000000000000000000000 *"
b10 ,"
b11001 +"
b10 5
b10 J
b10 h
b1111111111111111111111111 2
b1111111111111111111111111 I
b1111111111111111111111111 n
b110011001010 @
b110011001010 R
b110011001010 %"
b101 p
b110 o
b1100110101 F
b1100110101 U
b1100110101 i
b1111 V
b1000000 W
b10000000 g
1'
#270
0'
#280
b111 0
b111 D
b111 $"
b11111000000000000000000000000000 -
b11111000000000000000000000000000 C
b11111000000000000000000000000000 *"
b0 ,"
b11010 +"
b0 5
b0 J
b0 h
b11111111111111111111111111 2
b11111111111111111111111111 I
b11111111111111111111111111 n
b110011010000 @
b110011010000 R
b110011010000 %"
b111 p
b101 o
b1100101111 F
b1100101111 U
b1100101111 i
b1001 V
b100000 W
b1000000 g
1'
#290
0'
#300
b100 0
b100 D
b100 $"
b11 ,"
b11 5
b11 J
b11 h
b110011010011 @
b110011010011 R
b110011010011 %"
b100 p
b1100101100 F
b1100101100 U
b1100101100 i
b110 V
b10 \
1O
1P
b100000 W
b100000 g
1'
#310
0'
#320
b11 \
b10 b
1'
#330
0'
#340
b10000 W
0O
b1 \
b11 b
1'
#350
0'
#360
b10 0
b10 D
b10 $"
b101 ,"
b101 5
b101 J
b101 h
b110011010101 @
b110011010101 R
b110011010101 %"
b10 p
b1100101010 F
b1100101010 U
b1100101010 i
b100 V
b10000 W
b10 \
1P
1O
b1 b
b10000 g
1'
#370
0'
#380
b11 \
b10 b
1'
#390
0'
#400
b1000 W
0O
b1 \
b11 b
1'
#410
0'
#420
b0 0
b0 D
b0 $"
b111 ,"
b111 5
b111 J
b111 h
b110011010111 @
b110011010111 R
b110011010111 %"
b0 p
b1100101000 F
b1100101000 U
b1100101000 i
b10 V
b1000 W
1P
b10 \
1O
b1 b
b1000 g
1'
#430
0'
#440
b11 \
b10 b
1'
#450
0'
#460
b100 W
0O
b1 \
b11 b
1'
#470
0'
#480
b111 0
b111 D
b111 $"
b11110000000000000000000000000000 -
b11110000000000000000000000000000 C
b11110000000000000000000000000000 *"
b0 ,"
b11011 +"
b0 5
b0 J
b0 h
b111111111111111111111111111 2
b111111111111111111111111111 I
b111111111111111111111111111 n
b110011011000 @
b110011011000 R
b110011011000 %"
b111 p
b100 o
b1100100111 F
b1100100111 U
b1100100111 i
b1 V
b10 \
1O
b1 b
b100 g
1'
#490
0'
#500
b11 \
b10 b
1'
#510
0'
#520
b1100100110 Y
1S
b10 W
0O
b1 \
b11 b
1'
#530
0'
#540
b110 0
b110 D
b110 $"
b1 ,"
b1 5
b1 J
b1 h
b110011011001 @
b110011011001 R
b110011011001 %"
b110 p
b1100100110 F
b1100100110 U
b1100100110 i
b0 V
1Q
1T
b1 W
0P
0S
b1 \
0O
b1100100110 z
b1 b
b10 g
b1100100110 ?
b1100100110 e
b1100100110 r
1'
#550
0'
#560
b11001001100 z
0t
b11 y
b100 x
b10 #"
b1 ~
b1100100110 ""
0Q
0T
b0 Z
0(
0*
0,
0<
b10000000000000000 W
1)
1+
1=
1]
1K
b1 g
1'
#570
0'
#580
b0 0
b0 D
b0 $"
b0 -
b0 C
b0 *"
b1111111110000000 /
b1111111110000000 A
b1111111110000000 &"
b111 5
b111 J
b111 h
b11111111111111111111111111111110 2
b11111111111111111111111111111110 I
b11111111111111111111111111111110 n
b1111111100000000 4
b1111111100000000 G
b1111111100000000 j
b111 ,"
b11111 +"
1("
b1111111100000000 .
b1111111100000000 B
b1111111100000000 '"
b111 )"
1(
1*
1,
1<
b1000000000000000 W
b0 p
b0 o
0l
b1111111000000000 3
b1111111000000000 H
b1111111000000000 k
b1000 m
b11111111111 @
b11111111111 R
b11111111111 %"
0)
0+
0=
0]
b100000000000 V
0K
b100000000000 F
b100000000000 U
b100000000000 i
b0 d
b10000000000000000 g
1'
#590
b100000000000 Z
b1 [
1^
0'
1&
#600
b110 0
b110 D
b110 $"
b11110000000000000000000000000000 -
b11110000000000000000000000000000 C
b11110000000000000000000000000000 *"
b1111111111110000 /
b1111111111110000 A
b1111111111110000 &"
b1 5
b1 J
b1 h
b111111111111111111111111111 2
b111111111111111111111111111 I
b111111111111111111111111111 n
b1111100000000000 4
b1111100000000000 G
b1111100000000000 j
b1 ,"
b11011 +"
0("
b1111111111100000 .
b1111111111100000 B
b1111111111100000 '"
b100 )"
b101100100110 Z
b100000000000000 W
b110 p
b100 o
1l
b1111000000000000 3
b1111000000000000 H
b1111000000000000 k
b1011 m
b10011011001 @
b10011011001 R
b10011011001 %"
b1100100110 V
b101100100110 F
b101100100110 U
b101100100110 i
b100000000000 d
b1 c
b1000000000000000 g
1'
#610
b100000000000 Z
b0 [
0^
0'
0&
#620
b11111111111111111111111111110000 -
b11111111111111111111111111110000 C
b11111111111111111111111111110000 *"
b1111111111000000 /
b1111111111000000 A
b1111111111000000 &"
b11 +"
b1111111110000000 .
b1111111110000000 B
b1111111110000000 '"
b110 )"
b111 2
b111 I
b111 n
b1111111000000000 4
b1111111000000000 G
b1111111000000000 j
b11000011001 @
b11000011001 R
b11000011001 %"
b11100 o
b1111110000000000 3
b1111110000000000 H
b1111110000000000 k
b1001 m
b10000000000000 W
b100111100110 F
b100111100110 U
b100111100110 i
b111100110 V
b0 c
b100000000000000 g
1'
#630
0'
#640
b111 0
b111 D
b111 $"
b11110000000000000000000000000000 -
b11110000000000000000000000000000 C
b11110000000000000000000000000000 *"
b0 ,"
b11011 +"
b0 5
b0 J
b0 h
b111111111111111111111111111 2
b111111111111111111111111111 I
b111111111111111111111111111 n
b11011011000 @
b11011011000 R
b11011011000 %"
b111 p
b100 o
b100100100111 F
b100100100111 U
b100100100111 i
b100100111 V
b1000000000000 W
b10000000000000 g
1'
#650
0'
#660
b100 0
b100 D
b100 $"
b1111111111111111111111 -
b1111111111111111111111 C
b1111111111111111111111 *"
b1111111110000000 /
b1111111110000000 A
b1111111110000000 &"
b11 ,"
b1001 +"
1("
b1111111100000000 .
b1111111100000000 B
b1111111100000000 '"
b111 )"
b11 5
b11 J
b11 h
b11111111100000000000000000000000 2
b11111111100000000000000000000000 I
b11111111100000000000000000000000 n
b1111111100000000 4
b1111111100000000 G
b1111111100000000 j
b11101001011 @
b11101001011 R
b11101001011 %"
b100 p
b10110 o
0l
b1111111000000000 3
b1111111000000000 H
b1111111000000000 k
b1000 m
b100010110100 F
b100010110100 U
b100010110100 i
b10110100 V
b100000000000 W
b1000000000000 g
1'
#670
0'
#680
b110 0
b110 D
b110 $"
b1111111111111 -
b1111111111111 C
b1111111111111 *"
b1 ,"
b10010 +"
b1 5
b1 J
b1 h
b11111111111111111100000000000000 2
b11111111111111111100000000000000 I
b11111111111111111100000000000000 n
b11110010001 @
b11110010001 R
b11110010001 %"
b110 p
b1101 o
b100001101110 F
b100001101110 U
b100001101110 i
b1101110 V
b10000000000 W
b100000000000 g
1'
#690
0'
#700
b11 0
b11 D
b11 $"
b11111111 -
b11111111 C
b11111111 *"
b100 ,"
b10111 +"
b100 5
b100 J
b100 h
b11111111111111111111111000000000 2
b11111111111111111111111000000000 I
b11111111111111111111111000000000 n
b11110111100 @
b11110111100 R
b11110111100 %"
b11 p
b1000 o
b100001000011 F
b100001000011 U
b100001000011 i
b1000011 V
b1000000000 W
b10000000000 g
1'
#710
0'
#720
b1 0
b1 D
b1 $"
b11111 -
b11111 C
b11111 *"
b110 ,"
b11010 +"
b110 5
b110 J
b110 h
b11111111111111111111111111000000 2
b11111111111111111111111111000000 I
b11111111111111111111111111000000 n
b11111010110 @
b11111010110 R
b11111010110 %"
b1 p
b101 o
b100000101001 F
b100000101001 U
b100000101001 i
b101001 V
b100000000 W
b1000000000 g
1'
#730
0'
#740
b111 -
b111 C
b111 *"
b11100 +"
b11111111111111111111111111110000 2
b11111111111111111111111111110000 I
b11111111111111111111111111110000 n
b11111100110 @
b11111100110 R
b11111100110 %"
b11 o
b100000011001 F
b100000011001 U
b100000011001 i
b11001 V
b10000000 W
b100000000 g
1'
#750
0'
#760
b111 0
b111 D
b111 $"
b1 -
b1 C
b1 *"
b0 ,"
b11110 +"
b0 5
b0 J
b0 h
b11111111111111111111111111111100 2
b11111111111111111111111111111100 I
b11111111111111111111111111111100 n
b11111110000 @
b11111110000 R
b11111110000 %"
b111 p
b1 o
b100000001111 F
b100000001111 U
b100000001111 i
b1111 V
b1000000 W
b10000000 g
1'
#770
0'
#780
b1 0
b1 D
b1 $"
b110 ,"
b110 5
b110 J
b110 h
b11111110110 @
b11111110110 R
b11111110110 %"
b1 p
b100000001001 F
b100000001001 U
b100000001001 i
b1001 V
b100000 W
b1000000 g
1'
#790
0'
#800
b110 0
b110 D
b110 $"
b0 -
b0 C
b0 *"
b1 ,"
b11111 +"
b1 5
b1 J
b1 h
b11111111111111111111111111111110 2
b11111111111111111111111111111110 I
b11111111111111111111111111111110 n
b11111111001 @
b11111111001 R
b11111111001 %"
b110 p
b0 o
b100000000110 F
b100000000110 U
b100000000110 i
b110 V
b10 \
1O
1P
b100000 W
b100000 g
1'
#810
0'
#820
b11 \
b10 b
1'
#830
0'
#840
b10000 W
0O
b1 \
b11 b
1'
#850
0'
#860
b100 0
b100 D
b100 $"
b11 ,"
b11 5
b11 J
b11 h
b11111111011 @
b11111111011 R
b11111111011 %"
b100 p
b100000000100 F
b100000000100 U
b100000000100 i
b100 V
b10000 W
b10 \
1P
1O
b1 b
b10000 g
1'
#870
0'
#880
b11 \
b10 b
1'
#890
0'
#900
b1000 W
0O
b1 \
b11 b
1'
#910
0'
#920
b10 0
b10 D
b10 $"
b101 ,"
b101 5
b101 J
b101 h
b11111111101 @
b11111111101 R
b11111111101 %"
b10 p
b100000000010 F
b100000000010 U
b100000000010 i
b10 V
b1000 W
1P
b10 \
1O
b1 b
b1000 g
1'
#930
0'
#940
b11 \
b10 b
1'
#950
0'
#960
b100 W
0O
b1 \
b11 b
1'
#970
0'
#980
b1 0
b1 D
b1 $"
b110 ,"
b110 5
b110 J
b110 h
b11111111110 @
b11111111110 R
b11111111110 %"
b1 p
b100000000001 F
b100000000001 U
b100000000001 i
b1 V
b10 \
1O
b1 b
b100 g
1'
#990
0'
#1000
b11 \
b10 b
1'
#1010
0'
#1020
b100000000000 Y
1S
b10 W
0O
b1 \
b11 b
1'
#1030
0'
#1040
b0 0
b0 D
b0 $"
b111 ,"
b111 5
b111 J
b111 h
b11111111111 @
b11111111111 R
b11111111111 %"
b0 p
b100000000000 F
b100000000000 U
b100000000000 i
b0 V
1Q
1T
b1 W
0P
0S
b1 \
0O
b101100100110 z
b1 b
b10 g
b100000000000 ?
b100000000000 e
b100000000000 r
1'
#1050
0'
#1060
b100 y
b1001100100110 z
b11 #"
b101100100110 ""
0Q
0T
b0 Z
0(
0*
0,
0<
b10000000000000000 W
1)
1+
1=
1]
1K
b1 g
1'
#1070
0'
#1080
1(
1*
1,
1<
b1000000000000000 W
0)
0+
0=
0]
b100000000000 V
0K
b100000000000 F
b100000000000 U
b100000000000 i
b0 d
b10000000000000000 g
1'
#1090
0'
#1100
b110 0
b110 D
b110 $"
b11110000000000000000000000000000 -
b11110000000000000000000000000000 C
b11110000000000000000000000000000 *"
b1111000000000000 /
b1111000000000000 A
b1111000000000000 &"
b1 ,"
b11011 +"
0("
b1110000000000000 .
b1110000000000000 B
b1110000000000000 '"
b1100 )"
b1 5
b1 J
b1 h
b111111111111111111111111111 2
b111111111111111111111111111 I
b111111111111111111111111111 n
b1111111111111000 4
b1111111111111000 G
b1111111111111000 j
b100000000000000 W
b110011011001 @
b110011011001 R
b110011011001 %"
b110 p
b100 o
1l
b1111111111110000 3
b1111111111110000 H
b1111111111110000 k
b11 m
b1100100110 F
b1100100110 U
b1100100110 i
b1100100110 V
b1000000000000000 g
1'
#1110
0'
#1120
b11111111111111111111111111110000 -
b11111111111111111111111111110000 C
b11111111111111111111111111110000 *"
b1100000000000000 /
b1100000000000000 A
b1100000000000000 &"
b11 +"
b1000000000000000 .
b1000000000000000 B
b1000000000000000 '"
b1110 )"
b111 2
b111 I
b111 n
b1111111111111110 4
b1111111111111110 G
b1111111111111110 j
b111000011001 @
b111000011001 R
b111000011001 %"
b11100 o
b1111111111111100 3
b1111111111111100 H
b1111111111111100 k
b1 m
b10000000000000 W
b111100110 F
b111100110 U
b111100110 i
b111100110 V
b100000000000000 g
1'
#1130
0'
#1140
b111 0
b111 D
b111 $"
b11110000000000000000000000000000 -
b11110000000000000000000000000000 C
b11110000000000000000000000000000 *"
b0 ,"
b11011 +"
b0 5
b0 J
b0 h
b111111111111111111111111111 2
b111111111111111111111111111 I
b111111111111111111111111111 n
b111011011000 @
b111011011000 R
b111011011000 %"
b111 p
b100 o
b100100111 F
b100100111 U
b100100111 i
b100100111 V
b1000000000000 W
b10000000000000 g
1'
#1150
0'
#1160
b100 0
b100 D
b100 $"
b1111111111111111111111 -
b1111111111111111111111 C
b1111111111111111111111 *"
b1000000000000000 /
b1000000000000000 A
b1000000000000000 &"
b11 ,"
b1001 +"
1("
b0 .
b0 B
b0 '"
b1111 )"
b11 5
b11 J
b11 h
b11111111100000000000000000000000 2
b11111111100000000000000000000000 I
b11111111100000000000000000000000 n
b1111111111111111 4
b1111111111111111 G
b1111111111111111 j
b111101001011 @
b111101001011 R
b111101001011 %"
b100 p
b10110 o
0l
b1111111111111110 3
b1111111111111110 H
b1111111111111110 k
b0 m
b10110100 F
b10110100 U
b10110100 i
b10110100 V
b100000000000 W
b1000000000000 g
1'
#1170
0'
#1180
b110 0
b110 D
b110 $"
b1111111111111 -
b1111111111111 C
b1111111111111 *"
b1 ,"
b10010 +"
b1 5
b1 J
b1 h
b11111111111111111100000000000000 2
b11111111111111111100000000000000 I
b11111111111111111100000000000000 n
b111110010001 @
b111110010001 R
b111110010001 %"
b110 p
b1101 o
b1101110 F
b1101110 U
b1101110 i
b1101110 V
b10000000000 W
b100000000000 g
1'
#1190
0'
#1200
b11 0
b11 D
b11 $"
b11111111 -
b11111111 C
b11111111 *"
b100 ,"
b10111 +"
b100 5
b100 J
b100 h
b11111111111111111111111000000000 2
b11111111111111111111111000000000 I
b11111111111111111111111000000000 n
b111110111100 @
b111110111100 R
b111110111100 %"
b11 p
b1000 o
b1000011 F
b1000011 U
b1000011 i
b1000011 V
b1000000000 W
b10000000000 g
1'
#1210
0'
#1220
b1 0
b1 D
b1 $"
b11111 -
b11111 C
b11111 *"
b110 ,"
b11010 +"
b110 5
b110 J
b110 h
b11111111111111111111111111000000 2
b11111111111111111111111111000000 I
b11111111111111111111111111000000 n
b111111010110 @
b111111010110 R
b111111010110 %"
b1 p
b101 o
b101001 F
b101001 U
b101001 i
b101001 V
b100000000 W
b1000000000 g
1'
#1230
0'
#1240
b111 -
b111 C
b111 *"
b11100 +"
b11111111111111111111111111110000 2
b11111111111111111111111111110000 I
b11111111111111111111111111110000 n
b111111100110 @
b111111100110 R
b111111100110 %"
b11 o
b11001 F
b11001 U
b11001 i
b11001 V
b10000000 W
b100000000 g
1'
#1250
0'
