verilog/tb/dump.vcd
$date
	Thu Jan 12 21:58:17 2023
$end
$version
	Icarus Verilog
$end
$timescale
	1us
$end
$scope module adc_osr_tb $end
$var reg 1 ! data_valid_strobe $end
$upscope $end
$scope module adc_osr_tb $end
$var reg 1 " rst_n $end
$upscope $end
$scope module adc_osr_tb $end
$var reg 3 # osr_mode [2:0] $end
$upscope $end
$scope module adc_osr_tb $end
$var reg 12 $ data [11:0] $end
$upscope $end
$scope module adc_osr_tb $end
$var wire 16 % result [15:0] $end
$upscope $end
$scope module adc_osr_tb $end
$var wire 1 & conversion_finished $end
$upscope $end
$scope module adc_osr_tb $end
$scope module osr_dut $end
$var wire 1 ' bypass_oversampling $end
$var wire 1 & conversion_finished_osr_out $end
$var wire 12 ( data_in [11:0] $end
$var wire 16 ) data_out [15:0] $end
$var wire 1 ! data_valid_strobe $end
$var wire 1 * is_first_sample $end
$var wire 1 + is_last_sample $end
$var wire 1 , next_data_valid_w $end
$var wire 3 - osr_mode_in [2:0] $end
$var wire 1 " rst_n $end
$var wire 9 . osr_count_limit_w [8:0] $end
$var wire 9 / next_sample_count_w [8:0] $end
$var wire 20 0 next_result_w [19:0] $end
$var wire 16 1 next_output_w [15:0] $end
$var wire 3 2 next_osr_mode_w [2:0] $end
$var reg 1 3 data_valid_r $end
$var reg 3 4 osr_mode_r [2:0] $end
$var reg 16 5 output_r [15:0] $end
$var reg 20 6 result_r [19:0] $end
$var reg 9 7 sample_count_r [8:0] $end
$upscope $end
$upscope $end
$enddefinitions $end
$comment Show the parameter values. $end
$dumpall
$end
#0
$dumpvars
bx 7
bx 6
bx 5
bx 4
x3
b0 2
b0 1
b0 0
b1 /
bx0x0x0x0x .
b0 -
1,
1+
1*
bx )
b0 (
1'
0&
bx %
b0 $
b0 #
1"
0!
$end
#10
b1 .
13
b0 %
b0 )
b0 5
b1 7
b0 4
b0 6
1&
1!
#20
03
0&
0!
0"
#30
1!
#40
0!
#50
1!
#60
0!
1"
#70
1&
13
1!
#80
b1000100010000 1
0&
b100010001 0
0!
b100010001 $
b100010001 (
#90
b1000100010000 %
b1000100010000 )
b1000100010000 5
b100010001 6
1&
1!
#100
b10001000100000 1
0&
b1000100010 0
0!
b1000100010 $
b1000100010 (
#110
b10001000100000 %
b10001000100000 )
b10001000100000 5
b1000100010 6
1&
1!
#120
b10 /
0,
0+
0'
b10001000100000 1
0&
b0 0
b1 2
0!
b0 $
b0 (
b1 #
b1 -
#130
0*
b11 /
b100 .
03
b10 7
b1 4
b0 6
0&
1!
#140
b1 0
0!
b1 $
b1 (
#150
b100 /
b10 0
b11 7
b1 6
1!
#160
b11 0
0!
b10 $
b10 (
#170
b10000 1
1,
1+
b1 /
b101 0
b100 7
b11 6
1!
#180
b11000 1
b110 0
0!
b11 $
b11 (
#190
b10 /
0,
0+
1&
1*
b11 0
13
b11000 %
b11000 )
b11000 5
b1 7
b110 6
1!
#200
b0 1
b1 .
03
b0 %
b0 )
b0 5
b0 4
b0 6
0&
0!
0"
#210
1!
#220
b100010010000 0
b10 2
0!
b100010010000 $
b100010010000 (
b10 #
b10 -
1"
#230
b1000100100000 0
b10000 .
0*
b11 /
b10 7
b10 4
b100010010000 6
1!
#240
0!
#250
b100 /
b1100110110000 0
b11 7
b1000100100000 6
1!
#260
0!
#270
b101 /
b10001001000000 0
b100 7
b1100110110000 6
1!
#280
0!
#290
b110 /
b10101011010000 0
b101 7
b10001001000000 6
1!
#300
0!
#310
b111 /
b11001101100000 0
b110 7
b10101011010000 6
1!
#320
0!
#330
b1000 /
b11101111110000 0
b111 7
b11001101100000 6
1!
#340
0!
#350
b1001 /
b100010010000000 0
b1000 7
b11101111110000 6
1!
#360
0!
#370
b1010 /
b100110100010000 0
b1001 7
b100010010000000 6
1!
#380
0!
#390
b1011 /
b101010110100000 0
b1010 7
b100110100010000 6
1!
#400
0!
#410
b1100 /
b101111000110000 0
b1011 7
b101010110100000 6
1!
#420
0!
#430
b1101 /
b110011011000000 0
b1100 7
b101111000110000 6
1!
#440
0!
#450
b1110 /
b110111101010000 0
b1101 7
b110011011000000 6
1!
#460
0!
#470
b1111 /
b111011111100000 0
b1110 7
b110111101010000 6
1!
#480
0!
#490
b10000 /
b1000000001110000 0
b1111 7
b111011111100000 6
1!
#500
0!
#510
b1000100100000000 1
1,
1+
b1 /
b1000100100000000 0
b10000 7
b1000000001110000 6
1!
#520
0!
#530
b10 /
0,
0+
1&
1*
b100010010000 0
13
b1000100100000000 %
b1000100100000000 )
b1000100100000000 5
b1 7
b1000100100000000 6
1!
#540
0&
0!
#550
b1000100100000 0
0*
b11 /
03
b10 7
b100010010000 6
0&
1!
#560
b1000100100001 0
0!
b100010010001 $
b100010010001 (
#570
b100 /
b1100110110010 0
b11 7
b1000100100001 6
1!
#580
b1100110110011 0
0!
b100010010010 $
b100010010010 (
#590
b101 /
b10001001000101 0
b100 7
b1100110110011 6
1!
#600
b10001001000110 0
0!
b100010010011 $
b100010010011 (
#610
b110 /
b10101011011001 0
b101 7
b10001001000110 6
1!
#620
b10101011011010 0
0!
b100010010100 $
b100010010100 (
#630
b111 /
b11001101101110 0
b110 7
b10101011011010 6
1!
#640
b11001101101111 0
0!
b100010010101 $
b100010010101 (
#650
b1000 /
b11110000000100 0
b111 7
b11001101101111 6
1!
#660
b11110000000101 0
0!
b100010010110 $
b100010010110 (
#670
b1001 /
b100010010011011 0
b1000 7
b11110000000101 6
1!
#680
b100010010011100 0
0!
b100010010111 $
b100010010111 (
#690
b1010 /
b100110100110011 0
b1001 7
b100010010011100 6
1!
#700
b100110100110100 0
0!
b100010011000 $
b100010011000 (
#710
b1011 /
b101010111001100 0
b1010 7
b100110100110100 6
1!
#720
b101010111001101 0
0!
b100010011001 $
b100010011001 (
#730
b1100 /
b101111001100110 0
b1011 7
b101010111001101 6
1!
#740
b101111001100111 0
0!
b100010011010 $
b100010011010 (
#750
b1101 /
b110011100000001 0
b1100 7
b101111001100111 6
1!
#760
b110011100000010 0
0!
b100010011011 $
b100010011011 (
#770
b1110 /
b110111110011101 0
b1101 7
b110011100000010 6
1!
#780
b110111110011110 0
0!
b100010011100 $
b100010011100 (
#790
b1111 /
b111100000111010 0
b1110 7
b110111110011110 6
1!
#800
b111100000111011 0
0!
b100010011101 $
b100010011101 (
#810
b10000 /
b1000000011011000 0
b1111 7
b111100000111011 6
1!
#820
b1000000011011001 0
0!
b100010011110 $
b100010011110 (
#830
b1000100101110100 1
1,
1+
b1 /
b1000100101110111 0
b10000 7
b1000000011011001 6
1!
#840
b1000100101111000 1
b1000100101111000 0
0!
b100010011111 $
b100010011111 (
#850
b10 /
0,
0+
1&
1*
b100010011111 0
13
b1000100101111000 %
b1000100101111000 )
b1000100101111000 5
b1 7
b1000100101111000 6
1!
#860
0&
b0 0
b11 2
0!
b0 $
b0 (
b11 #
b11 -
#870
b1000000 .
0*
b11 /
03
b10 7
b11 4
b0 6
0&
1!
#880
b1 0
0!
b1 $
b1 (
#890
b100 /
b10 0
b11 7
b1 6
1!
#900
b11 0
0!
b10 $
b10 (
#910
b101 /
b101 0
b100 7
b11 6
1!
#920
b110 0
0!
b11 $
b11 (
#930
b110 /
b1001 0
b101 7
b110 6
1!
#940
b1010 0
0!
b100 $
b100 (
#950
b111 /
b1110 0
b110 7
b1010 6
1!
#960
b1111 0
0!
b101 $
b101 (
#970
b1000 /
b10100 0
b111 7
b1111 6
1!
#980
b10101 0
0!
b110 $
b110 (
#990
b1001 /
b11011 0
b1000 7
b10101 6
1!
#1000
b11100 0
0!
b111 $
b111 (
#1010
b1010 /
b100011 0
b1001 7
b11100 6
1!
#1020
b100100 0
0!
b1000 $
b1000 (
#1030
b1011 /
b101100 0
b1010 7
b100100 6
1!
#1040
b101101 0
0!
b1001 $
b1001 (
#1050
b1100 /
b110110 0
b1011 7
b101101 6
1!
#1060
b110111 0
0!
b1010 $
b1010 (
#1070
b1101 /
b1000001 0
b1100 7
b110111 6
1!
#1080
b1000010 0
0!
b1011 $
b1011 (
#1090
b1110 /
b1001101 0
b1101 7
b1000010 6
1!
#1100
b1001110 0
0!
b1100 $
b1100 (
#1110
b1111 /
b1011010 0
b1110 7
b1001110 6
1!
#1120
b1011011 0
0!
b1101 $
b1101 (
#1130
b10000 /
b1101000 0
b1111 7
b1011011 6
1!
#1140
b1101001 0
0!
b1110 $
b1110 (
#1150
b10001 /
b1110111 0
b10000 7
b1101001 6
1!
#1160
b1111000 0
0!
b1111 $
b1111 (
#1170
b10010 /
b10000111 0
b10001 7
b1111000 6
1!
#1180
b10001000 0
0!
b10000 $
b10000 (
#1190
b10011 /
b10011000 0
b10010 7
b10001000 6
1!
#1200
b10011001 0
0!
b10001 $
b10001 (
#1210
b10100 /
b10101010 0
b10011 7
b10011001 6
1!
#1220
b10101011 0
0!
b10010 $
b10010 (
#1230
b10101 /
b10111101 0
b10100 7
b10101011 6
1!
#1240
b10111110 0
0!
b10011 $
b10011 (
#1250
b10110 /
b11010001 0
b10101 7
b10111110 6
1!
#1260
b11010010 0
0!
b10100 $
b10100 (
#1270
b10111 /
b11100110 0
b10110 7
b11010010 6
1!
#1280
b11100111 0
0!
b10101 $
b10101 (
#1290
b11000 /
b11111100 0
b10111 7
b11100111 6
1!
#1300
b11111101 0
0!
b10110 $
b10110 (
#1310
b11001 /
b100010011 0
b11000 7
b11111101 6
1!
#1320
b100010100 0
0!
b10111 $
b10111 (
#1330
b11010 /
b100101011 0
b11001 7
b100010100 6
1!
#1340
b100101100 0
0!
b11000 $
b11000 (
#1350
b11011 /
b101000100 0
b11010 7
b100101100 6
1!
#1360
b101000101 0
0!
b11001 $
b11001 (
#1370
b11100 /
b101011110 0
b11011 7
b101000101 6
1!
#1380
b101011111 0
0!
b11010 $
b11010 (
#1390
b11101 /
b101111001 0
b11100 7
b101011111 6
1!
#1400
b101111010 0
0!
b11011 $
b11011 (
#1410
b11110 /
b110010101 0
b11101 7
b101111010 6
1!
#1420
b110010110 0
0!
b11100 $
b11100 (
#1430
b11111 /
b110110010 0
b11110 7
b110010110 6
1!
#1440
b110110011 0
0!
b11101 $
b11101 (
#1450
b100000 /
b111010000 0
b11111 7
b110110011 6
1!
#1460
b111010001 0
0!
b11110 $
b11110 (
#1470
b100001 /
b111101111 0
b100000 7
b111010001 6
1!
#1480
b111110000 0
0!
b11111 $
b11111 (
#1490
b100010 /
b1000001111 0
b100001 7
b111110000 6
1!
#1500
b1000010000 0
0!
b100000 $
b100000 (
#1510
b100011 /
b1000110000 0
b100010 7
b1000010000 6
1!
#1520
b1000110001 0
0!
b100001 $
b100001 (
#1530
b100100 /
b1001010010 0
b100011 7
b1000110001 6
1!
#1540
b1001010011 0
0!
b100010 $
b100010 (
#1550
b100101 /
b1001110101 0
b100100 7
b1001010011 6
1!
#1560
b1001110110 0
0!
b100011 $
b100011 (
#1570
b100110 /
b1010011001 0
b100101 7
b1001110110 6
1!
#1580
b1010011010 0
0!
b100100 $
b100100 (
#1590
b100111 /
b1010111110 0
b100110 7
b1010011010 6
1!
#1600
b1010111111 0
0!
b100101 $
b100101 (
#1610
b101000 /
b1011100100 0
b100111 7
b1010111111 6
1!
#1620
b1011100101 0
0!
b100110 $
b100110 (
#1630
b101001 /
b1100001011 0
b101000 7
b1011100101 6
1!
#1640
b1100001100 0
0!
b100111 $
b100111 (
#1650
b101010 /
b1100110011 0
b101001 7
b1100001100 6
1!
#1660
b1100110100 0
0!
b101000 $
b101000 (
#1670
b101011 /
b1101011100 0
b101010 7
b1100110100 6
1!
#1680
b1101011101 0
0!
b101001 $
b101001 (
#1690
b101100 /
b1110000110 0
b101011 7
b1101011101 6
1!
#1700
b1110000111 0
0!
b101010 $
b101010 (
#1710
b101101 /
b1110110001 0
b101100 7
b1110000111 6
1!
#1720
b1110110010 0
0!
b101011 $
b101011 (
#1730
b101110 /
b1111011101 0
b101101 7
b1110110010 6
1!
#1740
b1111011110 0
0!
b101100 $
b101100 (
#1750
b101111 /
b10000001010 0
b101110 7
b1111011110 6
1!
#1760
b10000001011 0
0!
b101101 $
b101101 (
#1770
b110000 /
b10000111000 0
b101111 7
b10000001011 6
1!
#1780
b10000111001 0
0!
b101110 $
b101110 (
#1790
b110001 /
b10001100111 0
b110000 7
b10000111001 6
1!
#1800
b10001101000 0
0!
b101111 $
b101111 (
#1810
b110010 /
b10010010111 0
b110001 7
b10001101000 6
1!
#1820
b10010011000 0
0!
b110000 $
b110000 (
#1830
b110011 /
b10011001000 0
b110010 7
b10010011000 6
1!
#1840
b10011001001 0
0!
b110001 $
b110001 (
#1850
b110100 /
b10011111010 0
b110011 7
b10011001001 6
1!
#1860
b10011111011 0
0!
b110010 $
b110010 (
#1870
b110101 /
b10100101101 0
b110100 7
b10011111011 6
1!
#1880
b10100101110 0
0!
b110011 $
b110011 (
#1890
b110110 /
b10101100001 0
b110101 7
b10100101110 6
1!
#1900
b10101100010 0
0!
b110100 $
b110100 (
#1910
b110111 /
b10110010110 0
b110110 7
b10101100010 6
1!
#1920
b10110010111 0
0!
b110101 $
b110101 (
#1930
b111000 /
b10111001100 0
b110111 7
b10110010111 6
1!
#1940
b10111001101 0
0!
b110110 $
b110110 (
#1950
b111001 /
b11000000011 0
b111000 7
b10111001101 6
1!
#1960
b11000000100 0
0!
b110111 $
b110111 (
#1970
b111010 /
b11000111011 0
b111001 7
b11000000100 6
1!
#1980
b11000111100 0
0!
b111000 $
b111000 (
#1990
b111011 /
b11001110100 0
b111010 7
b11000111100 6
1!
#2000
b11001110101 0
0!
b111001 $
b111001 (
#2010
b111100 /
b11010101110 0
b111011 7
b11001110101 6
1!
#2020
b11010101111 0
0!
b111010 $
b111010 (
#2030
b111101 /
b11011101001 0
b111100 7
b11010101111 6
1!
#2040
b11011101010 0
0!
b111011 $
b111011 (
#2050
b111110 /
b11100100101 0
b111101 7
b11011101010 6
1!
#2060
b11100100110 0
0!
b111100 $
b111100 (
#2070
b111111 /
b11101100010 0
b111110 7
b11100100110 6
1!
#2080
b11101100011 0
0!
b111101 $
b111101 (
#2090
b1000000 /
b11110100000 0
b111111 7
b11101100011 6
1!
#2100
b11110100001 0
0!
b111110 $
b111110 (
#2110
b111110110 1
1,
1+
b1 /
b11111011111 0
b1000000 7
b11110100001 6
1!
#2120
b111111000 1
b11111100000 0
0!
b111111 $
b111111 (
#2130
b10 /
0,
0+
1&
1*
b111111 0
13
b111111000 %
b111111000 )
b111111000 5
b1 7
b11111100000 6
1!
#2140
0&
b0 0
b100 2
0!
b0 $
b0 (
b100 #
b100 -
#2150
b100000000 .
0*
b11 /
03
b10 7
b100 4
b0 6
0&
1!
#2160
b1 0
0!
b1 $
b1 (
#2170
b100 /
b10 0
b11 7
b1 6
1!
#2180
b11 0
0!
b10 $
b10 (
#2190
b101 /
b101 0
b100 7
b11 6
1!
#2200
b110 0
0!
b11 $
b11 (
#2210
b110 /
b1001 0
b101 7
b110 6
1!
#2220
b1010 0
0!
b100 $
b100 (
#2230
b111 /
b1110 0
b110 7
b1010 6
1!
#2240
b1111 0
0!
b101 $
b101 (
#2250
b1000 /
b10100 0
b111 7
b1111 6
1!
#2260
b10101 0
0!
b110 $
b110 (
#2270
b1001 /
b11011 0
b1000 7
b10101 6
1!
#2280
b11100 0
0!
b111 $
b111 (
#2290
b1010 /
b100011 0
b1001 7
b11100 6
1!
#2300
b100100 0
0!
b1000 $
b1000 (
#2310
b1011 /
b101100 0
b1010 7
b100100 6
1!
#2320
b101101 0
0!
b1001 $
b1001 (
#2330
b1100 /
b110110 0
b1011 7
b101101 6
1!
#2340
b110111 0
0!
b1010 $
b1010 (
#2350
b1101 /
b1000001 0
b1100 7
b110111 6
1!
#2360
b1000010 0
0!
b1011 $
b1011 (
#2370
b1110 /
b1001101 0
b1101 7
b1000010 6
1!
#2380
b1001110 0
0!
b1100 $
b1100 (
#2390
b1111 /
b1011010 0
b1110 7
b1001110 6
1!
#2400
b1011011 0
0!
b1101 $
b1101 (
#2410
b10000 /
b1101000 0
b1111 7
b1011011 6
1!
#2420
b1101001 0
0!
b1110 $
b1110 (
#2430
b10001 /
b1110111 0
b10000 7
b1101001 6
1!
#2440
b1111000 0
0!
b1111 $
b1111 (
#2450
b10010 /
b10000111 0
b10001 7
b1111000 6
1!
#2460
b10001000 0
0!
b10000 $
b10000 (
#2470
b10011 /
b10011000 0
b10010 7
b10001000 6
1!
#2480
b10011001 0
0!
b10001 $
b10001 (
#2490
b10100 /
b10101010 0
b10011 7
b10011001 6
1!
#2500
b10101011 0
0!
b10010 $
b10010 (
#2510
b10101 /
b10111101 0
b10100 7
b10101011 6
1!
#2520
b10111110 0
0!
b10011 $
b10011 (
#2530
b10110 /
b11010001 0
b10101 7
b10111110 6
1!
#2540
b11010010 0
0!
b10100 $
b10100 (
#2550
b10111 /
b11100110 0
b10110 7
b11010010 6
1!
#2560
b11100111 0
0!
b10101 $
b10101 (
#2570
b11000 /
b11111100 0
b10111 7
b11100111 6
1!
#2580
b11111101 0
0!
b10110 $
b10110 (
#2590
b11001 /
b100010011 0
b11000 7
b11111101 6
1!
#2600
b100010100 0
0!
b10111 $
b10111 (
#2610
b11010 /
b100101011 0
b11001 7
b100010100 6
1!
#2620
b100101100 0
0!
b11000 $
b11000 (
#2630
b11011 /
b101000100 0
b11010 7
b100101100 6
1!
#2640
b101000101 0
0!
b11001 $
b11001 (
#2650
b11100 /
b101011110 0
b11011 7
b101000101 6
1!
#2660
b101011111 0
0!
b11010 $
b11010 (
#2670
b11101 /
b101111001 0
b11100 7
b101011111 6
1!
#2680
b101111010 0
0!
b11011 $
b11011 (
#2690
b11110 /
b110010101 0
b11101 7
b101111010 6
1!
#2700
b110010110 0
0!
b11100 $
b11100 (
#2710
b11111 /
b110110010 0
b11110 7
b110010110 6
1!
#2720
b110110011 0
0!
b11101 $
b11101 (
#2730
b100000 /
b111010000 0
b11111 7
b110110011 6
1!
#2740
b111010001 0
0!
b11110 $
b11110 (
#2750
b100001 /
b111101111 0
b100000 7
b111010001 6
1!
#2760
b111110000 0
0!
b11111 $
b11111 (
#2770
b100010 /
b1000001111 0
b100001 7
b111110000 6
1!
#2780
b1000010000 0
0!
b100000 $
b100000 (
#2790
b100011 /
b1000110000 0
b100010 7
b1000010000 6
1!
#2800
b1000110001 0
0!
b100001 $
b100001 (
#2810
b100100 /
b1001010010 0
b100011 7
b1000110001 6
1!
#2820
b1001010011 0
0!
b100010 $
b100010 (
#2830
b100101 /
b1001110101 0
b100100 7
b1001010011 6
1!
#2840
b1001110110 0
0!
b100011 $
b100011 (
#2850
b100110 /
b1010011001 0
b100101 7
b1001110110 6
1!
#2860
b1010011010 0
0!
b100100 $
b100100 (
#2870
b100111 /
b1010111110 0
b100110 7
b1010011010 6
1!
#2880
b1010111111 0
0!
b100101 $
b100101 (
#2890
b101000 /
b1011100100 0
b100111 7
b1010111111 6
1!
#2900
b1011100101 0
0!
b100110 $
b100110 (
#2910
b101001 /
b1100001011 0
b101000 7
b1011100101 6
1!
#2920
b1100001100 0
0!
b100111 $
b100111 (
#2930
b101010 /
b1100110011 0
b101001 7
b1100001100 6
1!
#2940
b1100110100 0
0!
b101000 $
b101000 (
#2950
b101011 /
b1101011100 0
b101010 7
b1100110100 6
1!
#2960
b1101011101 0
0!
b101001 $
b101001 (
#2970
b101100 /
b1110000110 0
b101011 7
b1101011101 6
1!
#2980
b1110000111 0
0!
b101010 $
b101010 (
#2990
b101101 /
b1110110001 0
b101100 7
b1110000111 6
1!
#3000
b1110110010 0
0!
b101011 $
b101011 (
#3010
b101110 /
b1111011101 0
b101101 7
b1110110010 6
1!
#3020
b1111011110 0
0!
b101100 $
b101100 (
#3030
b101111 /
b10000001010 0
b101110 7
b1111011110 6
1!
#3040
b10000001011 0
0!
b101101 $
b101101 (
#3050
b110000 /
b10000111000 0
b101111 7
b10000001011 6
1!
#3060
b10000111001 0
0!
b101110 $
b101110 (
#3070
b110001 /
b10001100111 0
b110000 7
b10000111001 6
1!
#3080
b10001101000 0
0!
b101111 $
b101111 (
#3090
b110010 /
b10010010111 0
b110001 7
b10001101000 6
1!
#3100
b10010011000 0
0!
b110000 $
b110000 (
#3110
b110011 /
b10011001000 0
b110010 7
b10010011000 6
1!
#3120
b10011001001 0
0!
b110001 $
b110001 (
#3130
b110100 /
b10011111010 0
b110011 7
b10011001001 6
1!
#3140
b10011111011 0
0!
b110010 $
b110010 (
#3150
b110101 /
b10100101101 0
b110100 7
b10011111011 6
1!
#3160
b10100101110 0
0!
b110011 $
b110011 (
#3170
b110110 /
b10101100001 0
b110101 7
b10100101110 6
1!
#3180
b10101100010 0
0!
b110100 $
b110100 (
#3190
b110111 /
b10110010110 0
b110110 7
b10101100010 6
1!
#3200
b10110010111 0
0!
b110101 $
b110101 (
#3210
b111000 /
b10111001100 0
b110111 7
b10110010111 6
1!
#3220
b10111001101 0
0!
b110110 $
b110110 (
#3230
b111001 /
b11000000011 0
b111000 7
b10111001101 6
1!
#3240
b11000000100 0
0!
b110111 $
b110111 (
#3250
b111010 /
b11000111011 0
b111001 7
b11000000100 6
1!
#3260
b11000111100 0
0!
b111000 $
b111000 (
#3270
b111011 /
b11001110100 0
b111010 7
b11000111100 6
1!
#3280
b11001110101 0
0!
b111001 $
b111001 (
#3290
b111100 /
b11010101110 0
b111011 7
b11001110101 6
1!
#3300
b11010101111 0
0!
b111010 $
b111010 (
#3310
b111101 /
b11011101001 0
b111100 7
b11010101111 6
1!
#3320
b11011101010 0
0!
b111011 $
b111011 (
#3330
b111110 /
b11100100101 0
b111101 7
b11011101010 6
1!
#3340
b11100100110 0
0!
b111100 $
b111100 (
#3350
b111111 /
b11101100010 0
b111110 7
b11100100110 6
1!
#3360
b11101100011 0
0!
b111101 $
b111101 (
#3370
b1000000 /
b11110100000 0
b111111 7
b11101100011 6
1!
#3380
b11110100001 0
0!
b111110 $
b111110 (
#3390
b1000001 /
b11111011111 0
b1000000 7
b11110100001 6
1!
#3400
b11111100000 0
0!
b111111 $
b111111 (
#3410
b1000010 /
b100000011111 0
b1000001 7
b11111100000 6
1!
#3420
b100000100000 0
0!
b1000000 $
b1000000 (
#3430
b1000011 /
b100001100000 0
b1000010 7
b100000100000 6
1!
#3440
b100001100001 0
0!
b1000001 $
b1000001 (
#3450
b1000100 /
b100010100010 0
b1000011 7
b100001100001 6
1!
#3460
b100010100011 0
0!
b1000010 $
b1000010 (
#3470
b1000101 /
b100011100101 0
b1000100 7
b100010100011 6
1!
#3480
b100011100110 0
0!
b1000011 $
b1000011 (
#3490
b1000110 /
b100100101001 0
b1000101 7
b100011100110 6
1!
#3500
b100100101010 0
0!
b1000100 $
b1000100 (
#3510
b1000111 /
b100101101110 0
b1000110 7
b100100101010 6
1!
#3520
b100101101111 0
0!
b1000101 $
b1000101 (
#3530
b1001000 /
b100110110100 0
b1000111 7
b100101101111 6
1!
#3540
b100110110101 0
0!
b1000110 $
b1000110 (
#3550
b1001001 /
b100111111011 0
b1001000 7
b100110110101 6
1!
#3560
b100111111100 0
0!
b1000111 $
b1000111 (
#3570
b1001010 /
b101001000011 0
b1001001 7
b100111111100 6
1!
#3580
b101001000100 0
0!
b1001000 $
b1001000 (
#3590
b1001011 /
b101010001100 0
b1001010 7
b101001000100 6
1!
#3600
b101010001101 0
0!
b1001001 $
b1001001 (
#3610
b1001100 /
b101011010110 0
b1001011 7
b101010001101 6
1!
#3620
b101011010111 0
0!
b1001010 $
b1001010 (
#3630
b1001101 /
b101100100001 0
b1001100 7
b101011010111 6
1!
#3640
b101100100010 0
0!
b1001011 $
b1001011 (
#3650
b1001110 /
b101101101101 0
b1001101 7
b101100100010 6
1!
#3660
b101101101110 0
0!
b1001100 $
b1001100 (
#3670
b1001111 /
b101110111010 0
b1001110 7
b101101101110 6
1!
#3680
b101110111011 0
0!
b1001101 $
b1001101 (
#3690
b1010000 /
b110000001000 0
b1001111 7
b101110111011 6
1!
#3700
b110000001001 0
0!
b1001110 $
b1001110 (
#3710
b1010001 /
b110001010111 0
b1010000 7
b110000001001 6
1!
#3720
b110001011000 0
0!
b1001111 $
b1001111 (
#3730
b1010010 /
b110010100111 0
b1010001 7
b110001011000 6
1!
#3740
b110010101000 0
0!
b1010000 $
b1010000 (
#3750
b1010011 /
b110011111000 0
b1010010 7
b110010101000 6
1!
#3760
b110011111001 0
0!
b1010001 $
b1010001 (
#3770
b1010100 /
b110101001010 0
b1010011 7
b110011111001 6
1!
#3780
b110101001011 0
0!
b1010010 $
b1010010 (
#3790
b1010101 /
b110110011101 0
b1010100 7
b110101001011 6
1!
#3800
b110110011110 0
0!
b1010011 $
b1010011 (
#3810
b1010110 /
b110111110001 0
b1010101 7
b110110011110 6
1!
#3820
b110111110010 0
0!
b1010100 $
b1010100 (
#3830
b1010111 /
b111001000110 0
b1010110 7
b110111110010 6
1!
#3840
b111001000111 0
0!
b1010101 $
b1010101 (
#3850
b1011000 /
b111010011100 0
b1010111 7
b111001000111 6
1!
#3860
b111010011101 0
0!
b1010110 $
b1010110 (
#3870
b1011001 /
b111011110011 0
b1011000 7
b111010011101 6
1!
#3880
b111011110100 0
0!
b1010111 $
b1010111 (
#3890
b1011010 /
b111101001011 0
b1011001 7
b111011110100 6
1!
#3900
b111101001100 0
0!
b1011000 $
b1011000 (
#3910
b1011011 /
b111110100100 0
b1011010 7
b111101001100 6
1!
#3920
b111110100101 0
0!
b1011001 $
b1011001 (
#3930
b1011100 /
b111111111110 0
b1011011 7
b111110100101 6
1!
#3940
b111111111111 0
0!
b1011010 $
b1011010 (
#3950
b1011101 /
b1000001011001 0
b1011100 7
b111111111111 6
1!
#3960
b1000001011010 0
0!
b1011011 $
b1011011 (
#3970
b1011110 /
b1000010110101 0
b1011101 7
b1000001011010 6
1!
#3980
b1000010110110 0
0!
b1011100 $
b1011100 (
#3990
b1011111 /
b1000100010010 0
b1011110 7
b1000010110110 6
1!
#4000
b1000100010011 0
0!
b1011101 $
b1011101 (
#4010
b1100000 /
b1000101110000 0
b1011111 7
b1000100010011 6
1!
#4020
b1000101110001 0
0!
b1011110 $
b1011110 (
#4030
b1100001 /
b1000111001111 0
b1100000 7
b1000101110001 6
1!
#4040
b1000111010000 0
0!
b1011111 $
b1011111 (
#4050
b1100010 /
b1001000101111 0
b1100001 7
b1000111010000 6
1!
#4060
b1001000110000 0
0!
b1100000 $
b1100000 (
#4070
b1100011 /
b1001010010000 0
b1100010 7
b1001000110000 6
1!
#4080
b1001010010001 0
0!
b1100001 $
b1100001 (
#4090
b1100100 /
b1001011110010 0
b1100011 7
b1001010010001 6
1!
#4100
b1001011110011 0
0!
b1100010 $
b1100010 (
#4110
b1100101 /
b1001101010101 0
b1100100 7
b1001011110011 6
1!
#4120
b1001101010110 0
0!
b1100011 $
b1100011 (
#4130
b1100110 /
b1001110111001 0
b1100101 7
b1001101010110 6
1!
#4140
b1001110111010 0
0!
b1100100 $
b1100100 (
#4150
b1100111 /
b1010000011110 0
b1100110 7
b1001110111010 6
1!
#4160
b1010000011111 0
0!
b1100101 $
b1100101 (
#4170
b1101000 /
b1010010000100 0
b1100111 7
b1010000011111 6
1!
#4180
b1010010000101 0
0!
b1100110 $
b1100110 (
#4190
b1101001 /
b1010011101011 0
b1101000 7
b1010010000101 6
1!
#4200
b1010011101100 0
0!
b1100111 $
b1100111 (
#4210
b1101010 /
b1010101010011 0
b1101001 7
b1010011101100 6
1!
#4220
b1010101010100 0
0!
b1101000 $
b1101000 (
#4230
b1101011 /
b1010110111100 0
b1101010 7
b1010101010100 6
1!
#4240
b1010110111101 0
0!
b1101001 $
b1101001 (
#4250
b1101100 /
b1011000100110 0
b1101011 7
b1010110111101 6
1!
#4260
b1011000100111 0
0!
b1101010 $
b1101010 (
#4270
b1101101 /
b1011010010001 0
b1101100 7
b1011000100111 6
1!
#4280
b1011010010010 0
0!
b1101011 $
b1101011 (
#4290
b1101110 /
b1011011111101 0
b1101101 7
b1011010010010 6
1!
#4300
b1011011111110 0
0!
b1101100 $
b1101100 (
#4310
b1101111 /
b1011101101010 0
b1101110 7
b1011011111110 6
1!
#4320
b1011101101011 0
0!
b1101101 $
b1101101 (
#4330
b1110000 /
b1011111011000 0
b1101111 7
b1011101101011 6
1!
#4340
b1011111011001 0
0!
b1101110 $
b1101110 (
#4350
b1110001 /
b1100001000111 0
b1110000 7
b1011111011001 6
1!
#4360
b1100001001000 0
0!
b1101111 $
b1101111 (
#4370
b1110010 /
b1100010110111 0
b1110001 7
b1100001001000 6
1!
#4380
b1100010111000 0
0!
b1110000 $
b1110000 (
#4390
b1110011 /
b1100100101000 0
b1110010 7
b1100010111000 6
1!
#4400
b1100100101001 0
0!
b1110001 $
b1110001 (
#4410
b1110100 /
b1100110011010 0
b1110011 7
b1100100101001 6
1!
#4420
b1100110011011 0
0!
b1110010 $
b1110010 (
#4430
b1110101 /
b1101000001101 0
b1110100 7
b1100110011011 6
1!
#4440
b1101000001110 0
0!
b1110011 $
b1110011 (
#4450
b1110110 /
b1101010000001 0
b1110101 7
b1101000001110 6
1!
#4460
b1101010000010 0
0!
b1110100 $
b1110100 (
#4470
b1110111 /
b1101011110110 0
b1110110 7
b1101010000010 6
1!
#4480
b1101011110111 0
0!
b1110101 $
b1110101 (
#4490
b1111000 /
b1101101101100 0
b1110111 7
b1101011110111 6
1!
#4500
b1101101101101 0
0!
b1110110 $
b1110110 (
#4510
b1111001 /
b1101111100011 0
b1111000 7
b1101101101101 6
1!
#4520
b1101111100100 0
0!
b1110111 $
b1110111 (
#4530
b1111010 /
b1110001011011 0
b1111001 7
b1101111100100 6
1!
#4540
b1110001011100 0
0!
b1111000 $
b1111000 (
#4550
b1111011 /
b1110011010100 0
b1111010 7
b1110001011100 6
1!
