verilog/tb/dump.vcd
$date
	Sun Mar 19 15:55:27 2023
$end
$version
	Icarus Verilog
$end
$timescale
	1us
$end
$scope module adc_core_digital_tb $end
$var reg 1 ! rst_n $end
$upscope $end
$scope module adc_core_digital_tb $end
$var reg 16 " config_1_in [15:0] $end
$upscope $end
$scope module adc_core_digital_tb $end
$var reg 16 # config_2_in [15:0] $end
$upscope $end
$scope module adc_core_digital_tb $end
$var wire 16 $ result_out [15:0] $end
$upscope $end
$scope module adc_core_digital_tb $end
$var wire 1 % conv_finished_out $end
$upscope $end
$scope module adc_core_digital_tb $end
$var wire 1 & conv_finished_osr_out $end
$upscope $end
$scope module adc_core_digital_tb $end
$var reg 1 ' comparator_in $end
$upscope $end
$scope module adc_core_digital_tb $end
$var reg 1 ( clk_dig_in $end
$upscope $end
$scope module adc_core_digital_tb $end
$var wire 1 ) enable_loop_out $end
$upscope $end
$scope module adc_core_digital_tb $end
$var wire 1 * sample_matrix_out $end
$upscope $end
$scope module adc_core_digital_tb $end
$var wire 1 + sample_matrix_out_n $end
$upscope $end
$scope module adc_core_digital_tb $end
$var wire 1 , sample_switch_out $end
$upscope $end
$scope module adc_core_digital_tb $end
$var wire 1 - sample_switch_out_n $end
$upscope $end
$scope module adc_core_digital_tb $end
$var wire 32 . pmatrix_col_out_n [31:0] $end
$upscope $end
$scope module adc_core_digital_tb $end
$var wire 16 / pmatrix_row_out_n [15:0] $end
$upscope $end
$scope module adc_core_digital_tb $end
$var wire 16 0 pmatrix_rowon_out_n [15:0] $end
$upscope $end
$scope module adc_core_digital_tb $end
$var wire 3 1 pmatrix_bincap_out_n [2:0] $end
$upscope $end
$scope module adc_core_digital_tb $end
$var wire 1 2 pmatrix_c0_out_n $end
$upscope $end
$scope module adc_core_digital_tb $end
$var wire 32 3 nmatrix_col_out_n [31:0] $end
$upscope $end
$scope module adc_core_digital_tb $end
$var wire 16 4 nmatrix_row_out_n [15:0] $end
$upscope $end
$scope module adc_core_digital_tb $end
$var wire 16 5 nmatrix_rowon_out_n [15:0] $end
$upscope $end
$scope module adc_core_digital_tb $end
$var wire 3 6 nmatrix_bincap_out_n [2:0] $end
$upscope $end
$scope module adc_core_digital_tb $end
$var wire 1 7 nmatrix_c0_out_n $end
$upscope $end
$scope module adc_core_digital_tb $end
$scope module core_dut $end
$var wire 16 8 _unused_ok_2 [15:0] $end
$var wire 1 9 _unused_ok_pin1 $end
$var wire 1 : _unused_ok_pin2 $end
$var wire 1 ( clk_dig_in $end
$var wire 1 ' comparator_in $end
$var wire 16 ; config_1_in [15:0] $end
$var wire 16 < config_2_in [15:0] $end
$var wire 1 % conv_finished_out $end
$var wire 1 7 nmatrix_c0_out_n $end
$var wire 1 2 pmatrix_c0_out_n $end
$var wire 1 ! rst_n $end
$var wire 1 * sample_matrix_out $end
$var wire 1 + sample_matrix_out_n $end
$var wire 1 , sample_switch_out $end
$var wire 1 - sample_switch_out_n $end
$var wire 1 = sample_cnb_n $end
$var wire 1 > sample_cnb $end
$var wire 1 ? row_mode_w $end
$var wire 16 @ result_out [15:0] $end
$var wire 12 A result_cnb [11:0] $end
$var wire 12 B pswitch_cnb [11:0] $end
$var wire 16 C pmatrix_rowon_out_n [15:0] $end
$var wire 16 D pmatrix_rowoff_out_n [15:0] $end
$var wire 16 E pmatrix_row_out_n [15:0] $end
$var wire 32 F pmatrix_col_out_n [31:0] $end
$var wire 32 G pmatrix_col_out [31:0] $end
$var wire 3 H pmatrix_bincap_out_n [2:0] $end
$var wire 3 I osr_mode_w [2:0] $end
$var wire 12 J nswitch_cnb [11:0] $end
$var wire 16 K nmatrix_rowon_out_n [15:0] $end
$var wire 16 L nmatrix_rowoff_out_n [15:0] $end
$var wire 16 M nmatrix_row_out_n [15:0] $end
$var wire 32 N nmatrix_col_out_n [31:0] $end
$var wire 32 O nmatrix_col_out [31:0] $end
$var wire 3 P nmatrix_bincap_out_n [2:0] $end
$var wire 1 ) enable_loop_out $end
$var wire 1 & conv_finished_osr_out $end
$var wire 1 Q conv_finished_cnb_n $end
$var wire 1 R col_mode_w $end
$var wire 3 S avg_control_w [2:0] $end
$var wire 8 T _unused_ok_1 [7:0] $end
$scope module cnb $end
$var wire 3 U avg_control_in [2:0] $end
$var wire 1 ( clk $end
$var wire 1 ' comparator_in $end
$var wire 1 Q conv_finished_strobe_out $end
$var wire 1 ) enable_loop_out $end
$var wire 1 V is_averaging_w $end
$var wire 1 W lsb_region_w $end
$var wire 1 X next_conv_finished_w $end
$var wire 12 Y nswitch_out [11:0] $end
$var wire 12 Z pswitch_out [11:0] $end
$var wire 1 [ result_ready_w $end
$var wire 1 \ result_strobe_w $end
$var wire 1 ! rst_n $end
$var wire 1 > sample_out $end
$var wire 1 = sample_out_n $end
$var wire 12 ] sar_up [11:0] $end
$var wire 12 ^ sar_down [11:0] $end
$var wire 12 _ nonbinary_value_w [11:0] $end
$var wire 17 ` next_shift_register_w [16:0] $end
$var wire 3 a next_sampled_avg_control_w [2:0] $end
$var wire 12 b next_result_w [11:0] $end
$var wire 12 c next_data_register_w [11:0] $end
$var wire 5 d next_average_sum_w [4:0] $end
$var wire 5 e next_average_counter_w [4:0] $end
$var wire 1 f is_sampling_w $end
$var wire 1 g is_holding_result_w $end
$var wire 1 h averaged_comparator_in_w $end
$var wire 5 i average_count_limit_w [4:0] $end
$var parameter 32 j MATRIX_BITS $end
$var parameter 32 k NONBINARY_REDUNDANCY $end
$var reg 5 l average_counter_r [4:0] $end
$var reg 5 m average_sum_r [4:0] $end
$var reg 1 Q conv_finished_r $end
$var reg 12 n data_register_r [11:0] $end
$var reg 12 o result_out [11:0] $end
$var reg 3 p sampled_avg_control_r [2:0] $end
$var reg 17 q shift_register_r [16:0] $end
$upscope $end
$scope module ndc $end
$var wire 3 r bincap_out_n [2:0] $end
$var wire 1 7 c0n_out_n $end
$var wire 1 : c0p_out_n $end
$var wire 1 R col_mode $end
$var wire 32 s col_out [31:0] $end
$var wire 12 t data_in [11:0] $end
$var wire 1 u is_first_row $end
$var wire 16 v row_bottotop_n [15:0] $end
$var wire 1 ? row_mode $end
$var wire 16 w rowoff_out_n [15:0] $end
$var wire 1 x zeroes $end
$var wire 16 y rowon_out_n [15:0] $end
$var wire 16 z rowon_midtoside_n [15:0] $end
$var wire 16 { rowon_bottotop_n [15:0] $end
$var wire 16 | row_out_n [15:0] $end
$var wire 16 } row_midtoside_n [15:0] $end
$var wire 4 ~ row_intermediate_w [3:0] $end
$var wire 1 !" row_direction_RL $end
$var wire 32 "" col_sidetoside_n [31:0] $end
$var wire 33 #" col_shift_inv [32:0] $end
$var wire 33 $" col_shift [32:0] $end
$var wire 32 %" col_out_n [31:0] $end
$var wire 32 &" col_odd_n [31:0] $end
$var wire 32 '" col_midtoside_n [31:0] $end
$var wire 5 (" col_intermediate_w [4:0] $end
$var wire 32 )" col_even_n [31:0] $end
$var wire 3 *" bincap_w [2:0] $end
$scope begin genblk1[0] $end
$var parameter 2 +" i $end
$upscope $end
$scope begin genblk1[1] $end
$var parameter 2 ," i $end
$upscope $end
$scope begin genblk1[2] $end
$var parameter 3 -" i $end
$upscope $end
$scope begin genblk1[3] $end
$var parameter 3 ." i $end
$upscope $end
$scope begin genblk1[4] $end
$var parameter 4 /" i $end
$upscope $end
$scope begin genblk1[5] $end
$var parameter 4 0" i $end
$upscope $end
$scope begin genblk1[6] $end
$var parameter 4 1" i $end
$upscope $end
$scope begin genblk1[7] $end
$var parameter 4 2" i $end
$upscope $end
$scope begin genblk2[0] $end
$var parameter 2 3" i $end
$upscope $end
$scope begin genblk2[1] $end
$var parameter 2 4" i $end
$upscope $end
$scope begin genblk2[2] $end
$var parameter 3 5" i $end
$upscope $end
$scope begin genblk2[3] $end
$var parameter 3 6" i $end
$upscope $end
$scope begin genblk2[4] $end
$var parameter 4 7" i $end
$upscope $end
$scope begin genblk2[5] $end
$var parameter 4 8" i $end
$upscope $end
$scope begin genblk2[6] $end
$var parameter 4 9" i $end
$upscope $end
$scope begin genblk2[7] $end
$var parameter 4 :" i $end
$upscope $end
$scope begin genblk2[8] $end
$var parameter 5 ;" i $end
$upscope $end
$scope begin genblk2[9] $end
$var parameter 5 <" i $end
$upscope $end
$scope begin genblk2[10] $end
$var parameter 5 =" i $end
$upscope $end
$scope begin genblk2[11] $end
$var parameter 5 >" i $end
$upscope $end
$scope begin genblk2[12] $end
$var parameter 5 ?" i $end
$upscope $end
$scope begin genblk2[13] $end
$var parameter 5 @" i $end
$upscope $end
$scope begin genblk2[14] $end
$var parameter 5 A" i $end
$upscope $end
$scope begin genblk2[15] $end
$var parameter 5 B" i $end
$upscope $end
$scope begin genblk2[16] $end
$var parameter 6 C" i $end
$upscope $end
$scope begin genblk2[17] $end
$var parameter 6 D" i $end
$upscope $end
$scope begin genblk2[18] $end
$var parameter 6 E" i $end
$upscope $end
$scope begin genblk2[19] $end
$var parameter 6 F" i $end
$upscope $end
$scope begin genblk2[20] $end
$var parameter 6 G" i $end
$upscope $end
$scope begin genblk2[21] $end
$var parameter 6 H" i $end
$upscope $end
$scope begin genblk2[22] $end
$var parameter 6 I" i $end
$upscope $end
$scope begin genblk2[23] $end
$var parameter 6 J" i $end
$upscope $end
$scope begin genblk2[24] $end
$var parameter 6 K" i $end
$upscope $end
$scope begin genblk2[25] $end
$var parameter 6 L" i $end
$upscope $end
$scope begin genblk2[26] $end
$var parameter 6 M" i $end
$upscope $end
$scope begin genblk2[27] $end
$var parameter 6 N" i $end
$upscope $end
$scope begin genblk2[28] $end
$var parameter 6 O" i $end
$upscope $end
$scope begin genblk2[29] $end
$var parameter 6 P" i $end
$upscope $end
$scope begin genblk2[30] $end
$var parameter 6 Q" i $end
$upscope $end
$scope begin genblk2[31] $end
$var parameter 6 R" i $end
$upscope $end
$scope begin genblk2[32] $end
$var parameter 7 S" i $end
$upscope $end
$scope begin genblk3[0] $end
$var parameter 2 T" i $end
$upscope $end
$scope begin genblk3[1] $end
$var parameter 2 U" i $end
$upscope $end
$scope begin genblk3[2] $end
$var parameter 3 V" i $end
$upscope $end
$scope begin genblk3[3] $end
$var parameter 3 W" i $end
$upscope $end
$scope begin genblk3[4] $end
$var parameter 4 X" i $end
$upscope $end
$scope begin genblk3[5] $end
$var parameter 4 Y" i $end
$upscope $end
$scope begin genblk3[6] $end
$var parameter 4 Z" i $end
$upscope $end
$scope begin genblk3[7] $end
$var parameter 4 [" i $end
$upscope $end
$scope begin genblk3[8] $end
$var parameter 5 \" i $end
$upscope $end
$scope begin genblk3[9] $end
$var parameter 5 ]" i $end
$upscope $end
$scope begin genblk3[10] $end
$var parameter 5 ^" i $end
$upscope $end
$scope begin genblk3[11] $end
$var parameter 5 _" i $end
$upscope $end
$scope begin genblk3[12] $end
$var parameter 5 `" i $end
$upscope $end
$scope begin genblk3[13] $end
$var parameter 5 a" i $end
$upscope $end
$scope begin genblk3[14] $end
$var parameter 5 b" i $end
$upscope $end
$scope begin genblk3[15] $end
$var parameter 5 c" i $end
$upscope $end
$upscope $end
$scope module osr $end
$var wire 1 d" bypass_oversampling $end
$var wire 1 & conversion_finished_osr_out $end
$var wire 12 e" data_in [11:0] $end
$var wire 16 f" data_out [15:0] $end
$var wire 1 Q data_valid_strobe $end
$var wire 1 g" is_first_sample $end
$var wire 1 h" is_last_sample $end
$var wire 1 i" next_data_valid_w $end
$var wire 3 j" osr_mode_in [2:0] $end
$var wire 1 ! rst_n $end
$var wire 9 k" osr_count_limit_w [8:0] $end
$var wire 9 l" next_sample_count_w [8:0] $end
$var wire 20 m" next_result_w [19:0] $end
$var wire 16 n" next_output_w [15:0] $end
$var wire 3 o" next_osr_mode_w [2:0] $end
$var reg 1 p" data_valid_r $end
$var reg 3 q" osr_mode_r [2:0] $end
$var reg 16 r" output_r [15:0] $end
$var reg 20 s" result_r [19:0] $end
$var reg 9 t" sample_count_r [8:0] $end
$upscope $end
$scope module pdc $end
$var wire 3 u" bincap_out_n [2:0] $end
$var wire 1 9 c0n_out_n $end
$var wire 1 2 c0p_out_n $end
$var wire 1 R col_mode $end
$var wire 32 v" col_out [31:0] $end
$var wire 12 w" data_in [11:0] $end
$var wire 1 x" is_first_row $end
$var wire 16 y" row_bottotop_n [15:0] $end
$var wire 1 ? row_mode $end
$var wire 16 z" rowoff_out_n [15:0] $end
$var wire 1 {" zeroes $end
$var wire 16 |" rowon_out_n [15:0] $end
$var wire 16 }" rowon_midtoside_n [15:0] $end
$var wire 16 ~" rowon_bottotop_n [15:0] $end
$var wire 16 !# row_out_n [15:0] $end
$var wire 16 "# row_midtoside_n [15:0] $end
$var wire 4 ## row_intermediate_w [3:0] $end
$var wire 1 $# row_direction_RL $end
$var wire 32 %# col_sidetoside_n [31:0] $end
$var wire 33 &# col_shift_inv [32:0] $end
$var wire 33 '# col_shift [32:0] $end
$var wire 32 (# col_out_n [31:0] $end
$var wire 32 )# col_odd_n [31:0] $end
$var wire 32 *# col_midtoside_n [31:0] $end
$var wire 5 +# col_intermediate_w [4:0] $end
$var wire 32 ,# col_even_n [31:0] $end
$var wire 3 -# bincap_w [2:0] $end
$scope begin genblk1[0] $end
$var parameter 2 .# i $end
$upscope $end
$scope begin genblk1[1] $end
$var parameter 2 /# i $end
$upscope $end
$scope begin genblk1[2] $end
$var parameter 3 0# i $end
$upscope $end
$scope begin genblk1[3] $end
$var parameter 3 1# i $end
$upscope $end
$scope begin genblk1[4] $end
$var parameter 4 2# i $end
$upscope $end
$scope begin genblk1[5] $end
$var parameter 4 3# i $end
$upscope $end
$scope begin genblk1[6] $end
$var parameter 4 4# i $end
$upscope $end
$scope begin genblk1[7] $end
$var parameter 4 5# i $end
$upscope $end
$scope begin genblk2[0] $end
$var parameter 2 6# i $end
$upscope $end
$scope begin genblk2[1] $end
$var parameter 2 7# i $end
$upscope $end
$scope begin genblk2[2] $end
$var parameter 3 8# i $end
$upscope $end
$scope begin genblk2[3] $end
$var parameter 3 9# i $end
$upscope $end
$scope begin genblk2[4] $end
$var parameter 4 :# i $end
$upscope $end
$scope begin genblk2[5] $end
$var parameter 4 ;# i $end
$upscope $end
$scope begin genblk2[6] $end
$var parameter 4 <# i $end
$upscope $end
$scope begin genblk2[7] $end
$var parameter 4 =# i $end
$upscope $end
$scope begin genblk2[8] $end
$var parameter 5 ># i $end
$upscope $end
$scope begin genblk2[9] $end
$var parameter 5 ?# i $end
$upscope $end
$scope begin genblk2[10] $end
$var parameter 5 @# i $end
$upscope $end
$scope begin genblk2[11] $end
$var parameter 5 A# i $end
$upscope $end
$scope begin genblk2[12] $end
$var parameter 5 B# i $end
$upscope $end
$scope begin genblk2[13] $end
$var parameter 5 C# i $end
$upscope $end
$scope begin genblk2[14] $end
$var parameter 5 D# i $end
$upscope $end
$scope begin genblk2[15] $end
$var parameter 5 E# i $end
$upscope $end
$scope begin genblk2[16] $end
$var parameter 6 F# i $end
$upscope $end
$scope begin genblk2[17] $end
$var parameter 6 G# i $end
$upscope $end
$scope begin genblk2[18] $end
$var parameter 6 H# i $end
$upscope $end
$scope begin genblk2[19] $end
$var parameter 6 I# i $end
$upscope $end
$scope begin genblk2[20] $end
$var parameter 6 J# i $end
$upscope $end
$scope begin genblk2[21] $end
$var parameter 6 K# i $end
$upscope $end
$scope begin genblk2[22] $end
$var parameter 6 L# i $end
$upscope $end
$scope begin genblk2[23] $end
$var parameter 6 M# i $end
$upscope $end
$scope begin genblk2[24] $end
$var parameter 6 N# i $end
$upscope $end
$scope begin genblk2[25] $end
$var parameter 6 O# i $end
$upscope $end
$scope begin genblk2[26] $end
$var parameter 6 P# i $end
$upscope $end
$scope begin genblk2[27] $end
$var parameter 6 Q# i $end
$upscope $end
$scope begin genblk2[28] $end
$var parameter 6 R# i $end
$upscope $end
$scope begin genblk2[29] $end
$var parameter 6 S# i $end
$upscope $end
$scope begin genblk2[30] $end
$var parameter 6 T# i $end
$upscope $end
$scope begin genblk2[31] $end
$var parameter 6 U# i $end
$upscope $end
$scope begin genblk2[32] $end
$var parameter 7 V# i $end
$upscope $end
$scope begin genblk3[0] $end
$var parameter 2 W# i $end
$upscope $end
$scope begin genblk3[1] $end
$var parameter 2 X# i $end
$upscope $end
$scope begin genblk3[2] $end
$var parameter 3 Y# i $end
$upscope $end
$scope begin genblk3[3] $end
$var parameter 3 Z# i $end
$upscope $end
$scope begin genblk3[4] $end
$var parameter 4 [# i $end
$upscope $end
$scope begin genblk3[5] $end
$var parameter 4 \# i $end
$upscope $end
$scope begin genblk3[6] $end
$var parameter 4 ]# i $end
$upscope $end
$scope begin genblk3[7] $end
$var parameter 4 ^# i $end
$upscope $end
$scope begin genblk3[8] $end
$var parameter 5 _# i $end
$upscope $end
$scope begin genblk3[9] $end
$var parameter 5 `# i $end
$upscope $end
$scope begin genblk3[10] $end
$var parameter 5 a# i $end
$upscope $end
$scope begin genblk3[11] $end
$var parameter 5 b# i $end
$upscope $end
$scope begin genblk3[12] $end
$var parameter 5 c# i $end
$upscope $end
$scope begin genblk3[13] $end
$var parameter 5 d# i $end
$upscope $end
$scope begin genblk3[14] $end
$var parameter 5 e# i $end
$upscope $end
$scope begin genblk3[15] $end
$var parameter 5 f# i $end
$upscope $end
$upscope $end
$upscope $end
$upscope $end
$enddefinitions $end
$comment Show the parameter values. $end
$dumpall
b1111 f#
b1110 e#
b1101 d#
b1100 c#
b1011 b#
b1010 a#
b1001 `#
b1000 _#
b111 ^#
b110 ]#
b101 \#
b100 [#
b11 Z#
b10 Y#
b1 X#
b0 W#
b100000 V#
b11111 U#
b11110 T#
b11101 S#
b11100 R#
b11011 Q#
b11010 P#
b11001 O#
b11000 N#
b10111 M#
b10110 L#
b10101 K#
b10100 J#
b10011 I#
b10010 H#
b10001 G#
b10000 F#
b1111 E#
b1110 D#
b1101 C#
b1100 B#
b1011 A#
b1010 @#
b1001 ?#
b1000 >#
b111 =#
b110 <#
b101 ;#
b100 :#
b11 9#
b10 8#
b1 7#
b0 6#
b111 5#
b110 4#
b101 3#
b100 2#
b11 1#
b10 0#
b1 /#
b0 .#
b1111 c"
b1110 b"
b1101 a"
b1100 `"
b1011 _"
b1010 ^"
b1001 ]"
b1000 \"
b111 ["
b110 Z"
b101 Y"
b100 X"
b11 W"
b10 V"
b1 U"
b0 T"
b100000 S"
b11111 R"
b11110 Q"
b11101 P"
b11100 O"
b11011 N"
b11010 M"
b11001 L"
b11000 K"
b10111 J"
b10110 I"
b10101 H"
b10100 G"
b10011 F"
b10010 E"
b10001 D"
b10000 C"
b1111 B"
b1110 A"
b1101 @"
b1100 ?"
b1011 >"
b1010 ="
b1001 <"
b1000 ;"
b111 :"
b110 9"
b101 8"
b100 7"
b11 6"
b10 5"
b1 4"
b0 3"
b111 2"
b110 1"
b101 0"
b100 /"
b11 ."
b10 -"
b1 ,"
b0 +"
b11 k
b1100 j
$end
#0
$dumpvars
bx -#
bx ,#
bx +#
bx *#
bx )#
bx (#
bx '#
bx &#
bx %#
x$#
bx ##
bx "#
bx !#
bx ~"
bx }"
bx |"
x{"
bx z"
bx y"
xx"
bx w"
bx v"
bx u"
bx t"
bx s"
bx r"
bx q"
xp"
bx o"
bx n"
bx m"
bx l"
bx0x0x0x0x k"
bx j"
xi"
xh"
xg"
bx f"
bx e"
xd"
bx *"
bx )"
bx ("
bx '"
bx &"
bx %"
bx $"
bx #"
bx ""
x!"
bx ~
bx }
bx |
bx {
bx z
bx y
xx
bx w
bx v
xu
bx t
bx s
bx r
bx q
bx p
bx o
bx n
bx m
bx l
bx1 i
xh
xg
xf
bx e
bx d
bx c
bx b
bx a
bx `
bx _
bx ^
bx ]
x\
x[
bx Z
bx Y
xX
xW
xV
bx U
bx T
bx S
xR
xQ
bx P
bx O
bx N
bx M
bx L
bx K
bx J
bx I
bx H
bx G
bx F
bx E
bx D
bx C
bx B
bx A
bx @
x?
x>
x=
bx <
bx ;
0:
19
bx 8
17
bx 6
bx 5
bx 4
bx 3
02
bx 1
bx 0
bx /
bx .
x-
x,
x+
x*
x)
x(
x'
x&
x%
bx $
bx #
bx "
x!
$end
#10
0d"
0x
0{"
b1 S
b1 U
b1 I
b1 j"
0?
0R
b0 T
b0 8
b0 #
b0 <
b1001 "
b1001 ;
0(
#20
1(
#30
0(
1!
0'
#40
1(
#50
b11111111111111111111111111111111 G
b11111111111111111111111111111111 v"
b0 .
b0 F
b0 (#
b0 n"
b1 O
b1 s
b0 %#
0x"
0h
b11111111111111111111111111111110 3
b11111111111111111111111111111110 N
b11111111111111111111111111111110 %"
0u
b0 *#
b0 )#
b11111111 D
b11111111 z"
b0 b
b11111111111111111111111111111110 ""
b11111111111111101111111111111111 '"
b1111111111111111111111111111111 &"
b111111111 L
b111111111 w
b0 ,#
b1111111111101111 "#
b1111111101111111 /
b1111111101111111 E
b1111111101111111 !#
0W
b100000000000 c
0i"
0h"
b11111111111111111111111111111110 )"
b1110111111111111 }
b1111111011111111 4
b1111111011111111 M
b1111111011111111 |
b0 1
b0 H
b0 u"
b1 &#
1$#
b1111111101111111 y"
b1111111110000000 0
b1111111110000000 C
b1111111110000000 |"
b1111000000011111 }"
0[
0X
0\
b111 6
b111 P
b111 r
b11111111111111111111111111111111 #"
0!"
b1111111011111111 v
b1111111100000000 5
b1111111100000000 K
b1111111100000000 y
b1111000000001111 z
b111 -#
b100000000000000000000000000000000 '#
b11111 +#
b1111111110000000 ~"
b111 ##
0V
0)
0+
0-
0=
b10000000000000000 `
b0 *"
b111111111111111111111111111111110 $"
b0 ("
b1111111100000000 {
b1000 ~
b11111111111 B
b11111111111 Z
b11111111111 w"
b0 d
b1 e
b1 a
b1 i
0g
1*
1,
1>
1f
b100000000000 ^
b100000000000 ]
b0 _
b0 m"
0&
1g"
b10 l"
b1 o"
b1 k"
0%
0Q
b100000000000 J
b100000000000 Y
b100000000000 t
b100000000000 n
b0 m
b1 l
b0 p
b1 q
b0 A
b0 o
b0 e"
0p"
b0 $
b0 @
b0 f"
b0 r"
b1 t"
b0 q"
b0 s"
0(
0!
#60
1(
#70
0(
1!
#80
b10011011010 c
1)
1+
1-
1=
b1000000000000000 `
b11 i
0*
0,
0>
0f
b10011011010 ^
b101100100110 ]
b1100100110 _
b1 p
b10000000000000000 q
1(
#90
0(
#100
b11111000000000000000000000000000 G
b11111000000000000000000000000000 v"
b111111111111111111111111111 .
b111111111111111111111111111 F
b111111111111111111111111111 (#
b1111111111111111111111111111 O
b1111111111111111111111111111 s
b111111111111111111111111111 %#
b11110000000000000000000000000000 3
b11110000000000000000000000000000 N
b11110000000000000000000000000000 %"
b11111111111110000011111111111111 *#
b111111111111111111111111111 )#
b111111111111 D
b111111111111 z"
b11110000000000000000000000000000 ""
b11000000000000000000000000000011 '"
b1111 &"
b11111 L
b11111 w
b11111111111111111111111111100000 ,#
b1111111111111011 "#
b1111011111111111 /
b1111011111111111 E
b1111011111111111 !#
b1011110100 c
b11110000000000000000000000000000 )"
b1111101111111111 }
b1111111111101111 4
b1111111111101111 M
b1111111111101111 |
b10 1
b10 H
b10 u"
b1111111111111111111111111111 &#
b1111011111111111 y"
b1111100000000000 0
b1111100000000000 C
b1111100000000000 |"
b1100000000000111 }"
b101 6
b101 P
b101 r
b11111 #"
b1111111111101111 v
b1111111111110000 5
b1111111111110000 K
b1111111111110000 y
b1111110000111111 z
b101 -#
b111111111111111111111111111100000 '#
b100 +#
b1111100000000000 ~"
b1011 ##
b100000000000000 `
b10 *"
b111110000000000000000000000000000 $"
b11011 ("
b1111111111110000 {
b100 ~
b101100100101 B
b101100100101 Z
b101100100101 w"
b111100110 _
b11011000000 ]
b1011110100 ^
b10011011010 J
b10011011010 Y
b10011011010 t
b10011011010 n
b1000000000000000 q
1(
#110
b11011000000 c
b1 d
1h
0(
1'
#120
b11111111000000000000000000000000 G
b11111111000000000000000000000000 v"
b111111111111111111111111 .
b111111111111111111111111 F
b111111111111111111111111 (#
b1111111111111111111111111 O
b1111111111111111111111111 s
b111111111111111111111111 %#
b11111110000000000000000000000000 3
b11111110000000000000000000000000 N
b11111110000000000000000000000000 %"
b11111111111100000000111111111111 *#
b111111111111111111111111 )#
b1111111111 D
b1111111111 z"
b11111110000000000000000000000000 ""
b11100000000000000000000000001111 '"
b1111111 &"
b1111111 L
b1111111 w
b11111111111111111111111100000000 ,#
b1111111111110111 "#
b1111110111111111 /
b1111110111111111 E
b1111110111111111 !#
b11111100111 c
b11111110000000000000000000000000 )"
b1111011111111111 }
b1111111110111111 4
b1111111110111111 M
b1111111110111111 |
b0 1
b0 H
b0 u"
b1111111111111111111111111 &#
b1111110111111111 y"
b1111111000000000 0
b1111111000000000 C
b1111111000000000 |"
b1110000000001111 }"
b111 6
b111 P
b111 r
b11111111 #"
b1111111110111111 v
b1111111111000000 5
b1111111111000000 K
b1111111111000000 y
b1111100000011111 z
b111 -#
b111111111111111111111111100000000 '#
b111 +#
b1111111000000000 ~"
b1001 ##
b10000000000000 `
b100100111 _
b0 *"
b111111110000000000000000000000000 $"
b11000 ("
b1111111111000000 {
b110 ~
b100100111111 B
b100100111111 Z
b100100111111 w"
b11111100111 ]
b10110011001 ^
b11011000000 J
b11011000000 Y
b11011000000 t
b11011000000 n
b1 m
b100000000000000 q
1(
#130
b10110011001 c
b0 d
0h
0(
0'
#140
b1111111111111 G
b1111111111111 v"
b11111111111 D
b11111111111 z"
b11111111111111111111000000000000 O
b11111111111111111111000000000000 s
b11111111100000000000001111111111 *#
b1111111111111111111 )#
b11111111111111111110000000000000 .
b11111111111111111110000000000000 F
b11111111111111111110000000000000 (#
b11111100000000000000000000111111 '"
b111111111111 &"
b111111111111 3
b111111111111 N
b111111111111 %"
b111111 L
b111111 w
b11111111111111111110000000000000 ,#
b11111111111111111110000000000000 %#
b1101111111111111 "#
b1111101111111111 /
b1111101111111111 E
b1111101111111111 !#
b10011100101 c
b11111111111100000000000000000000 )"
b111111111111 ""
b1111111111011111 }
b1111111111011111 4
b1111111111011111 M
b1111111111011111 |
b1 1
b1 H
b1 u"
b11111111111111111111 &#
0$#
b1111101111111111 y"
b1111110000000000 0
b1111110000000000 C
b1111110000000000 |"
b1110000000000111 }"
b10110100 _
b110 6
b110 P
b110 r
b1111111111111 #"
1!"
b1111111111011111 v
b1111111111100000 5
b1111111111100000 K
b1111111111100000 y
b1111100000111111 z
b110 -#
b111111111111111111110000000000000 '#
b1100 +#
b1111110000000000 ~"
b1010 ##
b1000000000000 `
b1 *"
b111111111111100000000000000000000 $"
b10011 ("
b1111111111100000 {
b101 ~
b101001100110 B
b101001100110 Z
b101001100110 w"
b11001001101 ]
b10011100101 ^
b10110011001 J
b10110011001 Y
b10110011001 t
b10110011001 n
b0 m
b10000000000000 q
1(
#150
0(
#160
b11110000000000000000000000000000 G
b11110000000000000000000000000000 v"
b111111111111 D
b111111111111 z"
b11111111111111111111111111111 O
b11111111111111111111111111111 s
b11111111111111000011111111111111 *#
b1111111111111111111111111111 )#
b1111111111111111111111111111 .
b1111111111111111111111111111 F
b1111111111111111111111111111 (#
b10000000000000000000000000000011 '"
b111 &"
b11100000000000000000000000000000 3
b11100000000000000000000000000000 N
b11100000000000000000000000000000 %"
b11111 L
b11111 w
b11111111111111111111111111110000 ,#
b1111111111111111111111111111 %#
b1111111111111011 "#
b1111011111111111 /
b1111011111111111 E
b1111011111111111 !#
b1101110 _
b10001110111 c
b11100000000000000000000000000000 )"
b11100000000000000000000000000000 ""
b1111101111111111 }
b1111111111101111 4
b1111111111101111 M
b1111111111101111 |
b101 1
b101 H
b101 u"
b11111111111111111111111111111 &#
1$#
b1111011111111111 y"
b1111100000000000 0
b1111100000000000 C
b1111100000000000 |"
b1100000000000111 }"
b10 6
b10 P
b10 r
b1111 #"
0!"
b1111111111101111 v
b1111111111110000 5
b1111111111110000 K
b1111111111110000 y
b1111110000111111 z
b10 -#
b111111111111111111111111111110000 '#
b11 +#
b1111100000000000 ~"
b1011 ##
b100000000000 `
b101 *"
b111100000000000000000000000000000 $"
b11100 ("
b1111111111110000 {
b100 ~
b101100011010 B
b101100011010 Z
b101100011010 w"
b10101010011 ]
b10001110111 ^
b10011100101 J
b10011100101 Y
b10011100101 t
b10011100101 n
b1000000000000 q
1(
#170
0(
#180
b11111111111111111100000000000000 G
b11111111111111111100000000000000 v"
b11111111111111 .
b11111111111111 F
b11111111111111 (#
b111111111111111 O
b111111111111111 s
b11111111111111 %#
b11111111111111111000000000000000 3
b11111111111111111000000000000000 N
b11111111111111111000000000000000 %"
b11111110000000000000000001111111 *#
b11111111111111 )#
b1000011 _
b11111111111111111000000000000000 ""
b11111111000000000000000111111111 '"
b11111111111111111 &"
b11111111111111000000000000000000 ,#
b10000110100 c
b11111111111111111000000000000000 )"
b111 1
b111 H
b111 u"
b111111111111111 &#
b0 6
b0 P
b0 r
b111111111111111111 #"
b0 -#
b111111111111111000000000000000000 '#
b10001 +#
b10000000000 `
b111 *"
b111111111111111111000000000000000 $"
b1110 ("
b101110001000 B
b101110001000 Z
b101110001000 w"
b10010111010 ]
b10000110100 ^
b10001110111 J
b10001110111 Y
b10001110111 t
b10001110111 n
b100000000000 q
1(
#190
0(
