verilog/adc_top/dump.vcd
$date
	Mon Sep 26 15:46:29 2022
$end
$version
	Icarus Verilog
$end
$timescale
	1us
$end
$scope module adc_control_nonbinary_tb $end
$var reg 1 ! clk $end
$upscope $end
$scope module adc_control_nonbinary_tb $end
$var reg 1 " rst $end
$upscope $end
$scope module adc_control_nonbinary_tb $end
$var reg 1 # comparator_in $end
$upscope $end
$scope module adc_control_nonbinary_tb $end
$var reg 3 $ avg_control [2:0] $end
$upscope $end
$scope module adc_control_nonbinary_tb $end
$var wire 1 % sample $end
$upscope $end
$scope module adc_control_nonbinary_tb $end
$var wire 1 & nsample $end
$upscope $end
$scope module adc_control_nonbinary_tb $end
$var wire 1 ' enable $end
$upscope $end
$scope module adc_control_nonbinary_tb $end
$var wire 1 ( conv_finished $end
$upscope $end
$scope module adc_control_nonbinary_tb $end
$var wire 12 ) p_switch [11:0] $end
$upscope $end
$scope module adc_control_nonbinary_tb $end
$var wire 12 * n_switch [11:0] $end
$upscope $end
$scope module adc_control_nonbinary_tb $end
$var wire 12 + result [11:0] $end
$upscope $end
$scope module adc_control_nonbinary_tb $end
$scope module testmodule $end
$var wire 3 , avg_control [2:0] $end
$var wire 1 ! clk $end
$var wire 1 # comparator_in $end
$var wire 1 & nsample $end
$var wire 1 " rst $end
$var wire 1 % sample $end
$var wire 1 ( conv_finished $end
$var parameter 32 - MATRIX_BITS $end
$var parameter 32 . NONBINARY_REDUNDANCY $end
$var reg 5 / average_count_limit [4:0] $end
$var reg 5 0 average_counter [4:0] $end
$var reg 1 1 average_result $end
$var reg 6 2 average_sum [5:0] $end
$var reg 1 3 averaging $end
$var reg 12 4 data_register [11:0] $end
$var reg 1 ' enable $end
$var reg 1 5 lsb_region $end
$var reg 12 6 n_switch [11:0] $end
$var reg 5 7 next_average_counter [4:0] $end
$var reg 6 8 next_average_sum [5:0] $end
$var reg 12 9 next_data_register [11:0] $end
$var reg 1 : next_enable $end
$var reg 12 ; next_result [11:0] $end
$var reg 16 < next_shift_register [15:0] $end
$var reg 12 = nonbinary_value [11:0] $end
$var reg 12 > p_switch [11:0] $end
$var reg 12 ? result [11:0] $end
$var reg 3 @ sampled_avg_control [2:0] $end
$var reg 16 A shift_register [15:0] $end
$upscope $end
$upscope $end
$enddefinitions $end
$comment Show the parameter values. $end
$dumpall
b11 .
b1100 -
$end
#0
$dumpvars
bx A
bx @
bx ?
bx >
bx =
bx <
bx ;
x:
bx 9
bx 8
bx 7
bx 6
x5
bx 4
x3
bx 2
x1
bx 0
bx /
bx ,
bx +
bx *
bx )
x(
x'
x&
x%
bx $
x#
x"
x!
$end
#10
0!
1"
#20
b111111111111 )
b111111111111 >
b0 *
b0 6
b0 =
b1000000000000000 <
1:
b1 /
b0 ;
b0 9
b0x 8
b1 7
03
0&
05
1%
1(
b0 +
b0 ?
0'
b1 A
b0 @
b0 4
b0 2
b1 0
0"
#30
1"
#40
b1 $
b1 ,
#50
01
b0 8
0#
#80
b100011111111 )
b100011111111 >
b11100000000 *
b11100000000 6
b11 /
b11100000000 =
b100000000000000 <
1&
0%
0(
b1 @
b1000000000000000 A
1'
1!
#90
b11100000000 9
11
b1 8
0!
1#
#100
b10000000000 =
b10000000000000 <
b101100000000 9
b10011111111 )
b10011111111 >
b101100000000 *
b101100000000 6
b100000000000000 A
b11100000000 4
b1 2
1!
#110
b11100000000 9
01
b0 8
0!
0#
#120
b11011111111 )
b11011111111 >
b100100000000 *
b100100000000 6
b1000000000 =
b1000000000000 <
b0 2
b10000000000000 A
1!
#130
0!
#140
b11110111111 )
b11110111111 >
b100001000000 *
b100001000000 6
b101000000 =
b100000000000 <
b1000000000000 A
1!
#150
0!
#160
b100000111111 )
b100000111111 >
b11111000000 *
b11111000000 6
b11000000 =
b10000000000 <
b100000000000 A
1!
#170
0!
#180
b100010011111 )
b100010011111 >
b11101100000 *
b11101100000 6
b1100000 =
b1000000000 <
b10000000000 A
1!
#190
0!
#200
b100010111111 )
b100010111111 >
b11101000000 *
b11101000000 6
b1000000 =
b100000000 <
b1000000000 A
1!
#210
0!
#220
b100011011111 )
b100011011111 >
b11100100000 *
b11100100000 6
b100000 =
b10000000 <
b100000000 A
1!
#230
0!
#240
b100011100111 )
b100011100111 >
b11100011000 *
b11100011000 6
b11000 =
b1000000 <
b10000000 A
1!
#250
0!
#260
b100011101111 )
b100011101111 >
b11100010000 *
b11100010000 6
b10000 =
b100000 <
b1000000 A
1!
#270
0!
#280
b100011110101 )
b100011110101 >
b11100001010 *
b11100001010 6
b1010 =
b10000 <
b100000 A
1!
#290
0!
#300
b10 7
b100011111001 )
b100011111001 >
b11100000110 *
b11100000110 6
13
b110 =
b10000 <
15
b10000 A
1!
#310
0!
#320
b11 7
b10 0
1!
#330
0!
#340
b1000 <
b1 7
03
b11 0
1!
#350
0!
#360
b10 7
b100011111011 )
b100011111011 >
b11100000100 *
b11100000100 6
13
b100 =
b1000 <
b1 0
b1000 A
1!
#370
0!
#380
b11 7
b10 0
1!
#390
0!
#400
b100 <
b1 7
03
b11 0
1!
#410
0!
#420
b10 7
b100011111101 )
b100011111101 >
b11100000010 *
b11100000010 6
b10 =
b100 <
13
b100 A
b1 0
1!
#430
0!
#440
b11 7
b10 0
1!
#450
0!
#460
b10 <
b1 7
03
b11 0
1!
#470
0!
#480
b10 7
b100011111110 )
b100011111110 >
b11100000001 *
b11100000001 6
13
b1 =
b0 ;
b10 <
1:
b1 0
b10 A
1!
#490
0!
#500
b11 7
b10 0
1!
#510
0!
#520
b11100000000 ;
b1 <
0:
b1 7
03
b11 0
1!
#530
0!
b0 $
b0 ,
#540
b100011111111 )
b100011111111 >
b11100000000 *
b11100000000 6
b0 =
b0 9
1:
b1000000000000000 <
03
0&
05
1%
1(
b11100000000 +
b11100000000 ?
0'
b1 A
b1 0
1!
#550
0!
#560
b1 /
b11100000000 =
b100011111111 )
b100011111111 >
b11100000000 *
b11100000000 6
b100000000000000 <
1&
0%
0(
b0 4
b0 @
b1000000000000000 A
1'
1!
#570
0!
#580
b101111111111 )
b101111111111 >
b10000000000 *
b10000000000 6
b10000000000 =
b10000000000000 <
b100000000000000 A
1!
#590
b10000000000 9
11
b1 8
0!
1#
#600
b1000000000 =
b11000000000 9
b100111111111 )
b100111111111 >
b11000000000 *
b11000000000 6
b1000000000000 <
b1 2
b10000000000 4
b10000000000000 A
1!
#610
b10000000000 9
01
b0 8
0!
0#
#620
b101010111111 )
b101010111111 >
b10101000000 *
b10101000000 6
b101000000 =
b100000000000 <
b1000000000000 A
b0 2
1!
#630
0!
#640
b101100111111 )
b101100111111 >
b10011000000 *
b10011000000 6
b11000000 =
b10000000000 <
b100000000000 A
1!
#650
0!
#660
b101110011111 )
b101110011111 >
b10001100000 *
b10001100000 6
b1100000 =
b1000000000 <
b10000000000 A
1!
#670
0!
#680
b101110111111 )
b101110111111 >
b10001000000 *
b10001000000 6
b1000000 =
b100000000 <
b1000000000 A
1!
#690
0!
#700
b101111011111 )
b101111011111 >
b10000100000 *
b10000100000 6
b100000 =
b10000000 <
b100000000 A
1!
#710
0!
#720
b101111100111 )
b101111100111 >
b10000011000 *
b10000011000 6
b11000 =
b1000000 <
b10000000 A
1!
#730
0!
#740
b101111101111 )
b101111101111 >
b10000010000 *
b10000010000 6
b10000 =
b100000 <
b1000000 A
1!
#750
0!
#760
b101111110101 )
b101111110101 >
b10000001010 *
b10000001010 6
b1010 =
b10000 <
b100000 A
1!
#770
0!
#780
b101111111001 )
b101111111001 >
b10000000110 *
b10000000110 6
b110 =
b1000 <
15
b10000 A
1!
#790
0!
#800
b101111111011 )
b101111111011 >
b10000000100 *
b10000000100 6
b100 =
b100 <
b1000 A
1!
#810
0!
#820
b101111111101 )
b101111111101 >
b10000000010 *
b10000000010 6
b10 =
b10 <
b100 A
1!
#830
0!
#840
b101111111110 )
b101111111110 >
b10000000001 *
b10000000001 6
b1 =
b10000000000 ;
0:
b1 <
b10 A
1!
#850
0!
#860
b101111111111 )
b101111111111 >
b10000000000 *
b10000000000 6
b0 =
b0 9
b1000000000000000 <
1:
0&
05
1%
1(
b10000000000 +
b10000000000 ?
0'
b1 A
1!
#870
0!
#880
b11100000000 =
b100011111111 )
b100011111111 >
b11100000000 *
b11100000000 6
b100000000000000 <
1&
0%
0(
b0 4
b1000000000000000 A
1'
1!
#890
0!
#900
b101111111111 )
b101111111111 >
b10000000000 *
b10000000000 6
b10000000000 =
b10000000000000 <
b100000000000000 A
1!
#910
0!
#920
b110111111111 )
b110111111111 >
b1000000000 *
b1000000000 6
b1000000000 =
b1000000000000 <
b10000000000000 A
1!
#930
0!
#940
b111010111111 )
b111010111111 >
b101000000 *
b101000000 6
b101000000 =
b100000000000 <
b1000000000000 A
1!
#950
0!
#960
b111100111111 )
b111100111111 >
b11000000 *
b11000000 6
b11000000 =
b10000000000 <
b100000000000 A
1!
#970
0!
#980
b111110011111 )
b111110011111 >
b1100000 *
b1100000 6
b1100000 =
b1000000000 <
b10000000000 A
1!
#990
0!
#1000
b111110111111 )
b111110111111 >
b1000000 *
b1000000 6
b1000000 =
b100000000 <
b1000000000 A
1!
#1010
0!
#1020
b111111011111 )
b111111011111 >
b100000 *
b100000 6
b100000 =
b10000000 <
b100000000 A
1!
#1030
0!
#1040
b111111100111 )
b111111100111 >
b11000 *
b11000 6
b11000 =
b1000000 <
b10000000 A
1!
#1050
0!
#1060
b111111101111 )
b111111101111 >
b10000 *
b10000 6
b10000 =
b100000 <
b1000000 A
1!
#1070
0!
#1080
b111111110101 )
b111111110101 >
b1010 *
b1010 6
b1010 =
b10000 <
b100000 A
1!
#1090
0!
#1100
b111111111001 )
b111111111001 >
b110 *
b110 6
b110 =
b1000 <
15
b10000 A
1!
#1110
b110 9
11
b1 8
0!
1#
#1120
b100 =
b1010 9
b111111110101 )
b111111110101 >
b1010 *
b1010 6
b100 <
b1 2
b110 4
b1000 A
1!
#1130
0!
#1140
b10 =
b10 <
b1100 9
b111111110011 )
b111111110011 >
b1100 *
b1100 6
b100 A
b1010 4
1!
#1150
0!
#1160
b1 =
b1101 ;
b1101 9
b111111110010 )
b111111110010 >
b1101 *
b1101 6
0:
b1 <
b1100 4
b10 A
1!
#1170
0!
b10 $
b10 ,
#1180
b0 =
b1000000000000000 <
1:
b0 9
b111111110010 )
b111111110010 >
b1101 *
b1101 6
0&
05
1%
1(
b1101 +
b1101 ?
0'
b1 A
b1101 4
1!
#1190
01
b0 8
0!
0#
#1200
b111 /
b11100000000 =
b100011111111 )
b100011111111 >
b11100000000 *
b11100000000 6
b100000000000000 <
1&
0%
0(
b0 2
b0 4
b10 @
b1000000000000000 A
1'
1!
#1210
0!
#1220
b101111111111 )
b101111111111 >
b10000000000 *
b10000000000 6
b10000000000 =
b10000000000000 <
b100000000000000 A
1!
#1230
0!
#1240
b110111111111 )
b110111111111 >
b1000000000 *
b1000000000 6
b1000000000 =
b1000000000000 <
b10000000000000 A
1!
#1250
b1000000000 9
11
b1 8
0!
1#
#1260
b101000000 =
b100000000000 <
b1101000000 9
b110010111111 )
b110010111111 >
b1101000000 *
b1101000000 6
b1000000000000 A
b1000000000 4
b1 2
1!
#1270
b1000000000 9
01
b0 8
0!
0#
#1280
b110100111111 )
b110100111111 >
b1011000000 *
b1011000000 6
b11000000 =
b10000000000 <
b0 2
b100000000000 A
1!
#1290
0!
#1300
b110110011111 )
b110110011111 >
b1001100000 *
b1001100000 6
b1100000 =
b1000000000 <
b10000000000 A
1!
#1310
0!
#1320
b110110111111 )
b110110111111 >
b1001000000 *
b1001000000 6
b1000000 =
b100000000 <
b1000000000 A
1!
#1330
0!
#1340
b110111011111 )
b110111011111 >
b1000100000 *
b1000100000 6
b100000 =
b10000000 <
b100000000 A
1!
#1350
0!
#1360
b110111100111 )
b110111100111 >
b1000011000 *
b1000011000 6
b11000 =
b1000000 <
b10000000 A
1!
#1370
0!
#1380
b110111101111 )
b110111101111 >
b1000010000 *
b1000010000 6
b10000 =
b100000 <
b1000000 A
1!
#1390
0!
#1400
b110111110101 )
b110111110101 >
b1000001010 *
b1000001010 6
b1010 =
b10000 <
b100000 A
1!
#1410
0!
#1420
b10 7
b110111111001 )
b110111111001 >
b1000000110 *
b1000000110 6
13
b110 =
b10000 <
15
b10000 A
1!
#1430
0!
#1440
b11 7
b10 0
1!
#1450
b1 8
0!
1#
#1460
b10 8
b100 7
b1 2
b11 0
1!
#1470
b1 8
0!
0#
#1480
b101 7
b100 0
1!
#1490
b10 8
0!
1#
#1500
b11 8
b110 7
b10 2
b101 0
1!
#1510
b10 8
0!
0#
#1520
b111 7
b110 0
1!
#1530
0!
#1540
b0 8
b1000 <
b1 7
03
b111 0
1!
#1550
0!
#1560
b10 7
b110111111011 )
b110111111011 >
b1000000100 *
b1000000100 6
13
b100 =
b1000 <
b0 2
b1 0
b1000 A
1!
#1570
0!
#1580
b11 7
b10 0
1!
#1590
0!
#1600
b100 7
b11 0
1!
#1610
0!
#1620
b101 7
b100 0
1!
#1630
0!
#1640
b110 7
b101 0
1!
#1650
0!
#1660
b111 7
b110 0
1!
#1670
0!
#1680
b100 <
b1 7
03
b111 0
1!
#1690
b1 8
0!
1#
#1700
b10 8
b10 7
b110111111101 )
b110111111101 >
b1000000010 *
b1000000010 6
b10 =
b100 <
13
b100 A
b1 2
b1 0
1!
#1710
0!
#1720
b11 8
b11 7
b10 2
b10 0
1!
#1730
b10 8
0!
0#
#1740
b100 7
b11 0
1!
#1750
0!
#1760
b101 7
b100 0
1!
#1770
b11 8
0!
1#
#1780
b100 8
b110 7
b11 2
b101 0
1!
#1790
b11 8
0!
0#
#1800
b111 7
b110 0
1!
#1810
b100 8
0!
1#
#1820
b1000000010 9
11
b10 <
b1 8
b1 7
03
b100 2
b111 0
1!
#1830
0!
#1840
b10 8
b10 7
01
13
b1 =
b1101 ;
b1000000010 9
b110111111100 )
b110111111100 >
b1000000011 *
b1000000011 6
1:
b10 <
b1 2
b1 0
b1000000010 4
b10 A
1!
#1850
0!
#1860
b11 8
b11 7
b10 2
b10 0
1!
#1870
0!
#1880
b100 8
b100 7
b11 2
b11 0
1!
#1890
0!
#1900
b101 8
b101 7
b100 2
b100 0
1!
#1910
0!
#1920
b110 8
b110 7
b101 2
b101 0
1!
#1930
0!
#1940
b111 8
b111 7
b110 2
b110 0
1!
#1950
0!
#1960
b1000000011 9
11
b1000000011 ;
0:
b1 <
b1 8
b1 7
03
b111 2
b111 0
1!
#1970
0!
b100 $
b100 ,
#1980
b0 =
b1000000000000000 <
1:
b0 9
b110111111100 )
b110111111100 >
b1000000011 *
b1000000011 6
11
03
0&
05
1%
1(
b1000000011 +
b1000000011 ?
0'
b1 A
b1000000011 4
b1 2
b1 0
1!
#1990
01
b0 8
0!
0#
#2000
b11111 /
b11100000000 =
b100011111111 )
b100011111111 >
b11100000000 *
b11100000000 6
b100000000000000 <
1&
0%
0(
b0 2
b0 4
b100 @
b1000000000000000 A
1'
1!
#2010
b11100000000 9
11
b1 8
0!
1#
#2020
b10000000000 =
b10000000000000 <
b101100000000 9
b10011111111 )
b10011111111 >
b101100000000 *
b101100000000 6
b100000000000000 A
b11100000000 4
b1 2
1!
#2030
0!
#2040
b1000000000 =
b110100000000 9
b1011111111 )
b1011111111 >
b110100000000 *
b110100000000 6
b1000000000000 <
b101100000000 4
b10000000000000 A
1!
#2050
0!
#2060
b101000000 =
b100000000000 <
b111001000000 9
b110111111 )
b110111111 >
b111001000000 *
b111001000000 6
b1000000000000 A
b110100000000 4
1!
#2070
0!
#2080
b11000000 =
b111100000000 9
b11111111 )
b11111111 >
b111100000000 *
b111100000000 6
b10000000000 <
b111001000000 4
b100000000000 A
1!
#2090
0!
#2100
b1100000 =
b1000000000 <
b111101100000 9
b10011111 )
b10011111 >
b111101100000 *
b111101100000 6
b10000000000 A
b111100000000 4
1!
#2110
0!
#2120
b1000000 =
b111110100000 9
b1011111 )
b1011111 >
b111110100000 *
b111110100000 6
b100000000 <
b111101100000 4
b1000000000 A
1!
#2130
0!
#2140
b100000 =
b10000000 <
b111111000000 9
b111111 )
b111111 >
b111111000000 *
b111111000000 6
b100000000 A
b111110100000 4
1!
#2150
0!
#2160
b11000 =
b111111011000 9
b100111 )
b100111 >
b111111011000 *
b111111011000 6
b1000000 <
b111111000000 4
b10000000 A
1!
#2170
0!
#2180
b10000 =
b100000 <
b111111101000 9
b10111 )
b10111 >
b111111101000 *
b111111101000 6
b1000000 A
b111111011000 4
1!
#2190
0!
#2200
b1010 =
b111111110010 9
b1101 )
b1101 >
b111111110010 *
b111111110010 6
b10000 <
b111111101000 4
b100000 A
1!
#2210
0!
#2220
b10 8
b10 7
13
b110 =
b10000 <
b111111110010 9
b111 )
b111 >
b111111111000 *
b111111111000 6
15
b10000 A
b111111110010 4
1!
#2230
0!
#2240
b11 8
b11 7
b10 2
b10 0
1!
#2250
0!
#2260
b100 8
b100 7
b11 2
b11 0
1!
#2270
0!
#2280
b101 8
b101 7
b100 2
b100 0
1!
#2290
0!
#2300
b110 8
b110 7
b101 2
b101 0
1!
#2310
0!
#2320
b111 8
b111 7
b110 2
b110 0
1!
#2330
0!
#2340
b1000 8
b1000 7
b111 2
b111 0
1!
#2350
0!
#2360
b1001 8
b1001 7
b1000 2
b1000 0
1!
#2370
0!
#2380
b1010 8
b1010 7
b1001 2
b1001 0
1!
#2390
0!
#2400
b1011 8
b1011 7
b1010 2
b1010 0
1!
#2410
0!
#2420
b1100 8
b1100 7
b1011 2
b1011 0
1!
#2430
0!
#2440
b1101 8
b1101 7
b1100 2
b1100 0
1!
#2450
0!
#2460
b1110 8
b1110 7
b1101 2
b1101 0
1!
#2470
0!
#2480
b1111 8
b1111 7
b1110 2
b1110 0
1!
#2490
0!
#2500
b10000 8
b10000 7
b1111 2
b1111 0
1!
#2510
0!
#2520
b10001 8
b10001 7
b10000 2
b10000 0
1!
#2530
0!
#2540
b10010 8
b10010 7
b10001 2
b10001 0
1!
#2550
0!
#2560
b10011 8
b10011 7
b10010 2
b10010 0
1!
#2570
0!
#2580
b10100 8
b10100 7
b10011 2
b10011 0
1!
#2590
0!
#2600
b10101 8
b10101 7
b10100 2
b10100 0
1!
#2610
0!
#2620
b10110 8
b10110 7
b10101 2
b10101 0
1!
#2630
0!
#2640
b10111 8
b10111 7
b10110 2
b10110 0
1!
#2650
0!
#2660
b11000 8
b11000 7
b10111 2
b10111 0
1!
#2670
0!
#2680
b11001 8
b11001 7
b11000 2
b11000 0
1!
#2690
0!
#2700
b11010 8
b11010 7
b11001 2
b11001 0
1!
#2710
0!
#2720
b11011 8
b11011 7
b11010 2
b11010 0
1!
#2730
0!
#2740
b11100 8
b11100 7
b11011 2
b11011 0
1!
#2750
0!
#2760
b11101 8
b11101 7
b11100 2
b11100 0
1!
#2770
0!
#2780
b11110 8
b11110 7
b11101 2
b11101 0
1!
#2790
0!
#2800
b11111 8
b11111 7
b11110 2
b11110 0
1!
#2810
0!
#2820
b111111111000 9
b1000 <
b1 8
b1 7
03
b11111 2
b11111 0
1!
#2830
0!
#2840
b10 8
b10 7
01
13
b100 =
b111111111000 9
b11 )
b11 >
b111111111100 *
b111111111100 6
b1000 <
b1 2
b1 0
b111111111000 4
b1000 A
1!
#2850
0!
#2860
b11 8
b11 7
b10 2
b10 0
1!
#2870
0!
#2880
b100 8
b100 7
b11 2
b11 0
1!
#2890
0!
#2900
b101 8
b101 7
b100 2
b100 0
1!
#2910
0!
#2920
b110 8
b110 7
b101 2
b101 0
1!
#2930
0!
#2940
b111 8
b111 7
b110 2
b110 0
1!
#2950
0!
#2960
b1000 8
b1000 7
b111 2
b111 0
1!
#2970
0!
#2980
b1001 8
b1001 7
b1000 2
b1000 0
1!
#2990
0!
#3000
b1010 8
b1010 7
b1001 2
b1001 0
1!
#3010
0!
#3020
b1011 8
b1011 7
b1010 2
b1010 0
1!
#3030
0!
#3040
b1100 8
b1100 7
b1011 2
b1011 0
1!
#3050
0!
#3060
b1101 8
b1101 7
b1100 2
b1100 0
1!
#3070
0!
#3080
b1110 8
b1110 7
b1101 2
b1101 0
1!
#3090
0!
#3100
b1111 8
b1111 7
b1110 2
b1110 0
1!
#3110
0!
#3120
b10000 8
b10000 7
b1111 2
b1111 0
1!
#3130
0!
#3140
b10001 8
b10001 7
b10000 2
b10000 0
1!
#3150
0!
#3160
b10010 8
b10010 7
b10001 2
b10001 0
1!
#3170
0!
#3180
b10011 8
b10011 7
b10010 2
b10010 0
1!
#3190
0!
#3200
b10100 8
b10100 7
b10011 2
b10011 0
1!
#3210
0!
#3220
b10101 8
b10101 7
b10100 2
b10100 0
1!
#3230
0!
#3240
b10110 8
b10110 7
b10101 2
b10101 0
1!
#3250
0!
#3260
b10111 8
b10111 7
b10110 2
b10110 0
1!
#3270
0!
#3280
b11000 8
b11000 7
b10111 2
b10111 0
1!
#3290
0!
#3300
b11001 8
b11001 7
b11000 2
b11000 0
1!
#3310
0!
#3320
b11010 8
b11010 7
b11001 2
b11001 0
1!
#3330
0!
#3340
b11011 8
b11011 7
b11010 2
b11010 0
1!
#3350
0!
#3360
b11100 8
b11100 7
b11011 2
b11011 0
1!
#3370
0!
#3380
b11101 8
b11101 7
b11100 2
b11100 0
1!
#3390
0!
#3400
b11110 8
b11110 7
b11101 2
b11101 0
1!
#3410
0!
#3420
b11111 8
b11111 7
b11110 2
b11110 0
1!
#3430
0!
#3440
b111111111100 9
11
b100 <
b1 8
b1 7
03
b11111 2
b11111 0
1!
#3450
0!
#3460
b10 8
b10 7
b10 =
b100 <
b111111111100 9
b1 )
b1 >
b111111111110 *
b111111111110 6
01
13
b100 A
b111111111100 4
b1 2
b1 0
1!
#3470
0!
#3480
b11 8
b11 7
b10 2
b10 0
1!
#3490
0!
#3500
b100 8
b100 7
b11 2
b11 0
1!
#3510
0!
#3520
b101 8
b101 7
b100 2
b100 0
1!
#3530
0!
#3540
b110 8
b110 7
b101 2
b101 0
1!
#3550
0!
#3560
b111 8
b111 7
b110 2
b110 0
1!
#3570
0!
#3580
b1000 8
b1000 7
b111 2
b111 0
1!
#3590
0!
#3600
b1001 8
b1001 7
b1000 2
b1000 0
1!
#3610
0!
#3620
b1010 8
b1010 7
b1001 2
b1001 0
1!
#3630
0!
#3640
b1011 8
b1011 7
b1010 2
b1010 0
1!
#3650
0!
#3660
b1100 8
b1100 7
b1011 2
b1011 0
1!
#3670
0!
#3680
b1101 8
b1101 7
b1100 2
b1100 0
1!
#3690
0!
#3700
b1110 8
b1110 7
b1101 2
b1101 0
1!
#3710
0!
#3720
b1111 8
b1111 7
b1110 2
b1110 0
1!
#3730
0!
#3740
b10000 8
b10000 7
b1111 2
b1111 0
1!
#3750
0!
#3760
b10001 8
b10001 7
b10000 2
b10000 0
1!
#3770
0!
#3780
b10010 8
b10010 7
b10001 2
b10001 0
1!
#3790
0!
#3800
b10011 8
b10011 7
b10010 2
b10010 0
1!
#3810
0!
#3820
b10100 8
b10100 7
b10011 2
b10011 0
1!
#3830
0!
#3840
b10101 8
b10101 7
b10100 2
b10100 0
1!
#3850
0!
#3860
b10110 8
b10110 7
b10101 2
b10101 0
1!
#3870
0!
#3880
b10111 8
b10111 7
b10110 2
b10110 0
1!
#3890
0!
#3900
b11000 8
b11000 7
b10111 2
b10111 0
1!
#3910
0!
#3920
b11001 8
b11001 7
b11000 2
b11000 0
1!
#3930
0!
#3940
b11010 8
b11010 7
b11001 2
b11001 0
1!
#3950
0!
#3960
b11011 8
b11011 7
b11010 2
b11010 0
1!
#3970
0!
#3980
b11100 8
b11100 7
b11011 2
b11011 0
1!
#3990
0!
#4000
b11101 8
b11101 7
b11100 2
b11100 0
1!
#4010
0!
#4020
b11110 8
b11110 7
b11101 2
b11101 0
1!
#4030
0!
#4040
b11111 8
b11111 7
b11110 2
b11110 0
1!
#4050
0!
#4060
b111111111110 9
11
b10 <
b1 8
b1 7
03
b11111 2
b11111 0
1!
#4070
0!
#4080
b10 8
b10 7
01
13
b1 =
b1000000011 ;
b111111111110 9
b0 )
b0 >
b111111111111 *
b111111111111 6
b10 <
1:
b1 2
b1 0
b111111111110 4
b10 A
1!
#4090
0!
#4100
b11 8
b11 7
b10 2
b10 0
1!
#4110
0!
#4120
b100 8
b100 7
b11 2
b11 0
1!
#4130
0!
#4140
b101 8
b101 7
b100 2
b100 0
1!
#4150
0!
#4160
b110 8
b110 7
b101 2
b101 0
1!
#4170
0!
#4180
b111 8
b111 7
b110 2
b110 0
1!
#4190
0!
#4200
b1000 8
b1000 7
b111 2
b111 0
1!
#4210
0!
#4220
b1001 8
b1001 7
b1000 2
b1000 0
1!
#4230
0!
#4240
b1010 8
b1010 7
b1001 2
b1001 0
1!
#4250
0!
#4260
b1011 8
b1011 7
b1010 2
b1010 0
1!
#4270
0!
#4280
b1100 8
b1100 7
b1011 2
b1011 0
1!
#4290
0!
#4300
b1101 8
b1101 7
b1100 2
b1100 0
1!
#4310
0!
#4320
b1110 8
b1110 7
b1101 2
b1101 0
1!
#4330
0!
#4340
b1111 8
b1111 7
b1110 2
b1110 0
1!
#4350
0!
#4360
b10000 8
b10000 7
b1111 2
b1111 0
1!
#4370
0!
#4380
b10001 8
b10001 7
b10000 2
b10000 0
1!
#4390
0!
#4400
b10010 8
b10010 7
b10001 2
b10001 0
1!
#4410
0!
#4420
b10011 8
b10011 7
b10010 2
b10010 0
1!
#4430
0!
#4440
b10100 8
b10100 7
b10011 2
b10011 0
1!
#4450
0!
#4460
b10101 8
b10101 7
b10100 2
b10100 0
1!
#4470
0!
#4480
b10110 8
b10110 7
b10101 2
b10101 0
1!
#4490
0!
#4500
b10111 8
b10111 7
b10110 2
b10110 0
1!
#4510
0!
#4520
b11000 8
b11000 7
b10111 2
b10111 0
1!
#4530
0!
#4540
b11001 8
b11001 7
b11000 2
b11000 0
1!
#4550
0!
#4560
b11010 8
b11010 7
b11001 2
b11001 0
1!
#4570
0!
#4580
b11011 8
b11011 7
b11010 2
b11010 0
1!
#4590
0!
#4600
b11100 8
b11100 7
b11011 2
b11011 0
1!
#4610
0!
#4620
b11101 8
b11101 7
b11100 2
b11100 0
1!
#4630
0!
#4640
b11110 8
b11110 7
b11101 2
b11101 0
1!
#4650
0!
#4660
b11111 8
b11111 7
b11110 2
b11110 0
1!
#4670
0!
#4680
b111111111111 9
11
b111111111111 ;
b1 <
0:
b1 8
b1 7
03
b11111 2
b11111 0
1!
#4690
0!
b0 $
b0 ,
#4700
b0 =
1:
b1000000000000000 <
b0 9
b0 )
b0 >
b111111111111 *
b111111111111 6
11
03
0&
05
1%
1(
b111111111111 +
b111111111111 ?
0'
b1 A
b111111111111 4
b1 2
b1 0
1!
#4710
01
b0 8
0!
0#
#4720
b1 /
b11100000000 =
b100011111111 )
b100011111111 >
b11100000000 *
b11100000000 6
b100000000000000 <
1&
0%
0(
b0 2
b0 4
b0 @
b1000000000000000 A
1'
1!
#4730
0!
#4740
b101111111111 )
b101111111111 >
b10000000000 *
b10000000000 6
b10000000000 =
b10000000000000 <
b100000000000000 A
1!
#4750
0!
#4760
b110111111111 )
b110111111111 >
b1000000000 *
b1000000000 6
b1000000000 =
b1000000000000 <
b10000000000000 A
1!
#4770
0!
#4780
b111010111111 )
b111010111111 >
b101000000 *
b101000000 6
b101000000 =
b100000000000 <
b1000000000000 A
1!
#4790
0!
#4800
b111100111111 )
b111100111111 >
b11000000 *
b11000000 6
b11000000 =
b10000000000 <
b100000000000 A
1!
#4810
0!
#4820
b111110011111 )
b111110011111 >
b1100000 *
b1100000 6
b1100000 =
b1000000000 <
b10000000000 A
1!
#4830
0!
#4840
b111110111111 )
b111110111111 >
b1000000 *
b1000000 6
b1000000 =
b100000000 <
b1000000000 A
1!
#4850
0!
#4860
b111111011111 )
b111111011111 >
b100000 *
b100000 6
b100000 =
b10000000 <
b100000000 A
1!
#4870
0!
#4880
b111111100111 )
b111111100111 >
b11000 *
b11000 6
b11000 =
b1000000 <
b10000000 A
1!
#4890
0!
#4900
b111111101111 )
b111111101111 >
b10000 *
b10000 6
b10000 =
b100000 <
b1000000 A
1!
#4910
0!
#4920
b111111110101 )
b111111110101 >
b1010 *
b1010 6
b1010 =
b10000 <
b100000 A
1!
#4930
0!
#4940
b111111111001 )
b111111111001 >
b110 *
b110 6
b110 =
b1000 <
15
b10000 A
1!
#4950
0!
#4960
b111111111011 )
b111111111011 >
b100 *
b100 6
b100 =
b100 <
b1000 A
1!
#4970
0!
#4980
b111111111101 )
b111111111101 >
b10 *
b10 6
b10 =
b10 <
b100 A
1!
#4990
0!
#5000
b111111111110 )
b111111111110 >
b1 *
b1 6
b1 =
b0 ;
0:
b1 <
b10 A
1!
#5010
0!
#5020
b111111111111 )
b111111111111 >
b0 *
b0 6
b0 =
b1000000000000000 <
1:
0&
05
1%
1(
b0 +
b0 ?
0'
b1 A
1!
#5030
0!
#5040
b100011111111 )
b100011111111 >
b11100000000 *
b11100000000 6
b11100000000 =
b100000000000000 <
1&
0%
0(
b1000000000000000 A
1'
1!
#5050
0!
#5060
b101111111111 )
b101111111111 >
b10000000000 *
b10000000000 6
b10000000000 =
b10000000000000 <
b100000000000000 A
1!
#5070
0!
#5080
b110111111111 )
b110111111111 >
b1000000000 *
b1000000000 6
b1000000000 =
b1000000000000 <
b10000000000000 A
1!
#5090
0!
#5100
b111010111111 )
b111010111111 >
b101000000 *
b101000000 6
b101000000 =
b100000000000 <
b1000000000000 A
1!
#5110
0!
#5120
b111100111111 )
b111100111111 >
b11000000 *
b11000000 6
b11000000 =
b10000000000 <
b100000000000 A
1!
#5130
0!
#5140
b111110011111 )
b111110011111 >
b1100000 *
b1100000 6
b1100000 =
b1000000000 <
b10000000000 A
1!
#5150
0!
